<?xml version="1.0" encoding="UTF-8" standalone="no"?>
<!-- Created with Inkscape (http://www.inkscape.org/) -->

<svg
   width="104.76468mm"
   height="76.748642mm"
   viewBox="0 0 104.76468 76.748642"
   version="1.1"
   id="svg10426"
   inkscape:version="1.1.1 (3bf5ae0d25, 2021-09-20)"
   sodipodi:docname="distance_blocks_fr.svg"
   xmlns:inkscape="http://www.inkscape.org/namespaces/inkscape"
   xmlns:sodipodi="http://sodipodi.sourceforge.net/DTD/sodipodi-0.dtd"
   xmlns:xlink="http://www.w3.org/1999/xlink"
   xmlns="http://www.w3.org/2000/svg"
   xmlns:svg="http://www.w3.org/2000/svg">
  <sodipodi:namedview
     id="namedview10428"
     pagecolor="#ffffff"
     bordercolor="#666666"
     borderopacity="1.0"
     inkscape:pageshadow="2"
     inkscape:pageopacity="0.0"
     inkscape:pagecheckerboard="0"
     inkscape:document-units="mm"
     showgrid="false"
     fit-margin-top="0"
     fit-margin-left="0"
     fit-margin-right="0"
     fit-margin-bottom="0"
     inkscape:zoom="2.6088428"
     inkscape:cx="197.9805"
     inkscape:cy="144.89183"
     inkscape:window-width="1920"
     inkscape:window-height="1011"
     inkscape:window-x="0"
     inkscape:window-y="0"
     inkscape:window-maximized="1"
     inkscape:current-layer="layer1" />
  <defs
     id="defs10423">
    <marker
       style="overflow:visible"
       id="Arrow1Mend"
       refX="0"
       refY="0"
       orient="auto"
       inkscape:stockid="Arrow1Mend"
       inkscape:isstock="true">
      <path
         transform="matrix(-0.4,0,0,-0.4,-4,0)"
         style="fill:context-stroke;fill-rule:evenodd;stroke:context-stroke;stroke-width:1pt"
         d="M 0,0 5,-5 -12.5,0 5,5 Z"
         id="path1027" />
    </marker>
    <marker
       style="overflow:visible"
       id="marker15007"
       refX="0"
       refY="0"
       orient="auto"
       inkscape:stockid="Arrow1Mstart"
       inkscape:isstock="true">
      <path
         transform="matrix(0.4,0,0,0.4,4,0)"
         style="fill:context-stroke;fill-rule:evenodd;stroke:context-stroke;stroke-width:1pt"
         d="M 0,0 5,-5 -12.5,0 5,5 Z"
         id="path15005" />
    </marker>
    <marker
       style="overflow:visible"
       id="Arrow1Mstart"
       refX="0"
       refY="0"
       orient="auto"
       inkscape:stockid="Arrow1Mstart"
       inkscape:isstock="true">
      <path
         transform="matrix(0.4,0,0,0.4,4,0)"
         style="fill:context-stroke;fill-rule:evenodd;stroke:context-stroke;stroke-width:1pt"
         d="M 0,0 5,-5 -12.5,0 5,5 Z"
         id="path1024" />
    </marker>
    <marker
       style="overflow:visible"
       id="marker15007-9"
       refX="0"
       refY="0"
       orient="auto"
       inkscape:stockid="Arrow1Mstart"
       inkscape:isstock="true">
      <path
         transform="matrix(0.4,0,0,0.4,4,0)"
         style="fill:context-stroke;fill-rule:evenodd;stroke:context-stroke;stroke-width:1pt"
         d="M 0,0 5,-5 -12.5,0 5,5 Z"
         id="path15005-7" />
    </marker>
    <marker
       style="overflow:visible"
       id="Arrow1Mend-3"
       refX="0"
       refY="0"
       orient="auto"
       inkscape:stockid="Arrow1Mend"
       inkscape:isstock="true">
      <path
         transform="matrix(-0.4,0,0,-0.4,-4,0)"
         style="fill:context-stroke;fill-rule:evenodd;stroke:context-stroke;stroke-width:1pt"
         d="M 0,0 5,-5 -12.5,0 5,5 Z"
         id="path1027-6" />
    </marker>
    <marker
       style="overflow:visible"
       id="marker15007-9-2"
       refX="0"
       refY="0"
       orient="auto"
       inkscape:stockid="Arrow1Mstart"
       inkscape:isstock="true">
      <path
         transform="matrix(0.4,0,0,0.4,4,0)"
         style="fill:context-stroke;fill-rule:evenodd;stroke:context-stroke;stroke-width:1pt"
         d="M 0,0 5,-5 -12.5,0 5,5 Z"
         id="path15005-7-9" />
    </marker>
    <marker
       style="overflow:visible"
       id="Arrow1Mend-3-3"
       refX="0"
       refY="0"
       orient="auto"
       inkscape:stockid="Arrow1Mend"
       inkscape:isstock="true">
      <path
         transform="matrix(-0.4,0,0,-0.4,-4,0)"
         style="fill:context-stroke;fill-rule:evenodd;stroke:context-stroke;stroke-width:1pt"
         d="M 0,0 5,-5 -12.5,0 5,5 Z"
         id="path1027-6-1" />
    </marker>
    <marker
       style="overflow:visible"
       id="marker15007-9-4"
       refX="0"
       refY="0"
       orient="auto"
       inkscape:stockid="Arrow1Mstart"
       inkscape:isstock="true">
      <path
         transform="matrix(0.4,0,0,0.4,4,0)"
         style="fill:context-stroke;fill-rule:evenodd;stroke:context-stroke;stroke-width:1pt"
         d="M 0,0 5,-5 -12.5,0 5,5 Z"
         id="path15005-7-7" />
    </marker>
    <marker
       style="overflow:visible"
       id="Arrow1Mend-3-8"
       refX="0"
       refY="0"
       orient="auto"
       inkscape:stockid="Arrow1Mend"
       inkscape:isstock="true">
      <path
         transform="matrix(-0.4,0,0,-0.4,-4,0)"
         style="fill:context-stroke;fill-rule:evenodd;stroke:context-stroke;stroke-width:1pt"
         d="M 0,0 5,-5 -12.5,0 5,5 Z"
         id="path1027-6-4" />
    </marker>
  </defs>
  <g
     inkscape:label="Calque 1"
     inkscape:groupmode="layer"
     id="layer1"
     transform="translate(-62.452927,-73.80191)">
    <rect
       style="fill:#ffffff;fill-opacity:1;stroke:none;stroke-width:0.245778;stroke-miterlimit:4;stroke-dasharray:none;stroke-opacity:1"
       id="rect23569"
       width="104.65144"
       height="76.748642"
       x="62.452927"
       y="73.80191"
       ry="0" />
    <image
       width="90"
       height="70.596329"
       preserveAspectRatio="none"
       xlink:href="data:image/png;base64,iVBORw0KGgoAAAANSUhEUgAAAo4AAAIBCAYAAADH6D7tAAAABHNCSVQICAgIfAhkiAAAIABJREFU eJzs3WdYlNfCNeDFgCMCSlGaFMGCBVBsKPaSgBobsWCXYowxxoLoZY0lOca8STSxxZgQ40nUAIoF g0QsKNIUFUVQAeWIqIgFNNJGZub7kRO/N68lKsPsKev+dS6ceZ5ljo5r9n723gZKpVIJIiIiIjUo KSnB8ePHcejQISQlJcHa2hru7u5o27YtXFxcYGBgIDqiMGvWrEHDhg0xefJk0VFeyIDFkYiIiFSt vLwcV69eRV5eHvLy8nDlyhVcvXoVt2/fhoeHx9OyaGlpKTqqxrh06RI2bdqEtWvXwsjISHSc59LM VERERKQVSktLkZeXh6tXryI3NxdXrlzBtWvXcO/ePdjb28POzg62trZo1qwZevbsCVtbW0ilUtGx NVLr1q1Rt25dXLx4EV5eXqLjPBeLIxEREb2UUqnE3bt3nxbEnJwc5OTk4Nq1a3j8+DEcHBxgZ2cH GxsbtGvXDgMGDICNjQ0MDQ1FR9c6zZo1Q3JyssYWR05VExEREQBAoVDg1q1bzy2I1dXVcHJygq2t LWxtbWFvbw97e3s0atQIEolEdHSdUVhYiFWrVmHNmjUwNjYWHecZHHEkIiLSM3K5HNevX39aEK9c uYLc3Fxcv34dRkZGT0cQbW1t0a9fP0yYMAEWFhZ6vXBFXRwdHVG/fn2cO3cOPj4+ouM8g8WRiIhI R1VVVeHatWtPF6lcuXIFeXl5KCgoQIMGDeDg4AAbGxvY2dlh8ODBsLe3R/369VkQBfPw8MDJkydZ HImIiKh23blzB//+97+xf/9+FBcXw8rKCo0bN4aNjQ3s7e3RoUMH2NnZwdTUVHRUeoEhQ4Zg4cKF ePjwIczNzUXH+RsWRyIiIh2QlZWF77//HkeOHIG3tzfGjx+PJk2aoG7duqKj0WuysLBAw4YNkZ6e jv79+4uO8zcsjkRERFpKoVAgISEBW7ZsQV5eHnr37o1PP/0U9evXFx2Naqhjx45ISkpicSQiIqKa qaiowO7duxEeHg4DAwP07dsXQUFBqFOnjuhopCIDBw7E4cOHUVxcDBsbG9FxnmJxJCIi0hJ/Pb+4 c+dOuLq6YuTIkWjVqhUXs+ggY2Nj2NraIi0tDUOGDBEd5ykWRyIiIg33v59f7NKlC8LCwmBnZyc6 FtWy7t27Iz4+HoMHD9aYLwfcsZOIiEgDKRQKHDlyBAEBAZg8eTIMDQ3x6aefYty4cSyNeqJv374o KytDQUGB6ChPccSRiIhIg1RUVGDXrl348ccfnz6/GBwczOcX9ZBEIoGDgwNSU1PRpEkT0XEA8MhB IiIijfB/n1/s168fn18kpKenY/v27fjqq6804mhHFkciIiKBsrKy8MMPP+Dw4cPo0qUL+vXrx6lo ekqhUCA0NBTvv/8+WrduLToOp6qJiIjU7fHjxzhy5Ai2b9+Oa9eucf9FeiGJRAJXV1ekpqZqRHHk iCMREZEalJaW4vDhw4iNjcWpU6fQrFkzdO7cGd7e3jAy4jgOvVhOTg7WrVuHtWvXCn/WlX9SiYiI asndu3cRHx+P2NhYZGRkoGXLlvDy8sLw4cNhZmYmOh5pCTc3NxgbGyMzMxMdOnQQmoXFkYiISIVu 376NuLg4xMbGIjs7Gx4eHvDy8sKYMWNgYmIiOh5pKTc3NyQnJwsvjpyqJiIiqqGCggKEh4fj9OnT KCgoQNu2bdG+fXt4eHigbt26ouORDrh9+zZWrlyJr776SugXEI44EhERvSalUom8vDwcPHgQBw8e xK1bt1BZWQk3Nzd8+eWXkEqloiOSjrG3t4e5uTnOnj2LHj16CMvB4khERPQKSktLkZ2djZMnT+L3 339HaWkpvLy8MGjQILRq1QopKSmIjIyEQqEQHZV0VNu2bZGcnCy0OHKqmoiI6H9RKpW4ffs2srOz kZ2djQsXLuDSpUsoKSmBk5MTXF1d4eXlhebNmz+zIfOiRYvg4+ODIUOGCEpPuuzhw4dYsGABVq9e DXNzcyEZOOJIRER6Sy6XIz8/H1lZWcjKykJmZiauXLkCuVyOJk2awMHBAU2bNkXv3r1hZ2cHQ0PD l15v7Nix2Lx5M/r06cM9GUnlzM3N0ahRI5w+fRpvvfWWkAwsjkREpBcqKytx5coVZGdn4+LFi7h4 8SLy8vJgZmYGZ2dnODg4oFOnTvD390fDhg3f6Kg/T09P2NjYICYmBuPGjauF3wXpu86dOyMxMVFY ceRUNRER6Ry5XI4zZ84gMzMTmZmZyMrKQkFBAezt7eHo6AgHBwc4OTnByclJ5SOD+fn5+OKLL7By 5Uo0atRIpdcmkslkmDNnDpYuXSrkaEqOOBIRkc4oKChAVFQUdu3aBQMDA7Rq1QqOjo4ICAiAo6Oj WlY7u7q6wtnZGXv27MF7771X6/cj/SKVSmFnZ4dTp05h6NChar8/iyMREWm1iooKHDp0CDt37kR2 djY6d+6MKVOmwMXF5Y2mm1UhODgYK1aswI0bN+Dk5CQkA+muHj164ODBgxgyZIja/4xzqpqIiLSO UqlEZmYmIiMjERMTAycnJ/j4+KBjx44as4fiunXrUF1djdDQUNFRSMcoFArMmjULoaGhcHV1Veu9 OeJIRERao6SkBHv27EFkZCQePHiArl27YuHChbCxsREd7RnBwcFYuHAhcnJy4ObmJjoO6RCJRAIn JyekpaWpvThyxJGIiDSaXC5HUlISdu7cicTERHh4eKBr167w8PB4Zh9FTRMeHo5bt25hyZIlwqbN STedOXMGP//8M9asWaPWvwcsjkREpJFu3LiBqKgoREVFoW7duujWrRu6dOmiVfsjymQyzJs3D5Mn T0aHDh1ExyEdM2fOHLz33nto06aN2u7JqWoiItIYlZWV+P333/Hrr78iKysLnTp1Er7QpSakUil6 9OiBqKgoeHl5afwIKWkXV1dXpKSkqLU4csSRiIiEUiqVuHjx4tOFLo6Ojhq30KUmFAoFwsLC8O67 7wo9Y5h0T25uLr7++musXbtWbX9XOOJIRERClJaWYu/evYiIiMD9+/fRtWtXLFiwQCMXutSERCKB n58fdu/eDW9vb50ow6QZWrRoARMTE2RmZqJjx45quSeLIxERqY1cLkdycjJ+/fVXHD9+HB4eHvDz 89OKhS414efnh6NHj+LYsWPw8/MTHYd0iJubG5KTk1kciYhIdxQWFmLXrl2IjIxEnTp10K1bN3z6 6ado0KCB6GhqM3LkSPz73/9Gjx49YGpqKjoO6YihQ4di+fLlKCsrU8ufKxZHIiKqFZWVlTh06BAi IiKQmZmJTp06ITg4GK6urlq50KWmOnfujP379yMuLg4jRowQHYd0hK2tLSwsLHDu3Dm1PEPL4khE RCojl8tx9uxZ7N+/HwcOHICDgwO6du2KiRMn8tk+AOPGjcOGDRvQv39/WFhYiI5DOsLT0xMnT55U S3HkqmoiIqqR6upqpKam4uDBg4iPj0fdunXRvn17+Pj4wNbWVnQ8jfPJJ5/A2dkZkydPFh2FdMTj x48xb948rFq1CpaWlrV6L444EhHRa6usrMTJkydx8OBBHD16FFZWVmjbti0++ugjNG7cWC+nol9V UFAQPvvsM/j5+cHOzk50HNIBZmZmsLa2xunTp+Hr61ur9+KIIxERvZKysjIcO3YMsbGxSExMhIOD A9q1a4f27dvr3BY6te3LL7+EiYkJpk+fLjoK6YiYmBicOnUKn3zySa3eh8WRiIheqLS0FIcPH8bB gweRlpYGV1fXp2WxtqfEdFlpaSkWL16MsLAwuLq6io5DOkAmk2HOnDlYsmQJ7O3ta+0+nKomIqK/ KS4uRnx8PGJjY5GRkYGWLVvCy8sLQ4cO1apzojWZhYUFPDw8EBkZifnz53Nqn2pMKpXCzs4OaWlp GD58eK3dhyOORESEwsJCxMXF4eDBg7h8+TI8PT3Rrl07eHp6wsTERHQ8nVReXo4FCxbg/fffh7u7 u+g4pAOOHz+OmJgYfPHFF7X2ZYTFkYhIT129ehVxcXGIjY3FjRs30K5dO7Rr1w4eHh7cOkdNfv75 Z+Tm5mLFihUcdaQaUygUmD17NmbPno2mTZvWyj04VU1EpCeUSiWys7Ofjizev38fXl5e8PX1RevW rWFkxH8S1G3s2LEICwvD6dOn4e3tLToOaTmJRAJHR0ekpKSwOBIR0etRKBS4f/8+cnNzcezYMcTF xaGqqgpeXl4YMWIEWrRoodPnQ2sDIyMj9OvXD1FRUejYsSMMDQ1FRyIt9/bbb2Pr1q0YM2ZMrfx5 4lQ1EZEWqq6uRnFxMYqKinDnzh0UFRXh1q1buHXrFm7fvo3i4mLcvXsXRkZGsLa2hoeHB7y8vPT2 uD9NplAoMH/+fAwePBh9+vQRHYd0QGhoKEJCQmrl2VmOOBIRaaDCwsKnJbCoqAi3b9/GrVu3UFRU hOLiYjx48ACmpqawsrKCpaUlzM3NYW5uDjs7O7Rq1QqWlpawtLSEsbExi6KGk0gkGDJkCPbs2QMf Hx/UrVtXdCTSci4uLkhOTq6V4sgRRyIiDVFdXY2DBw8iPDwcly5dQpMmTf5WCv8qg5aWlrCwsOAC Fh2zYMECdO/eHUOGDBEdhbTctWvX8OWXX+Lrr79W+ecERxyJiAR78OABdu7ciZ9//hnm5ubo06cP PvzwQz7vpmcCAgIQHh6OPn36cL9MqpGmTZvCzMwM58+fR+fOnVV6bRZHIiJBLl++jK1btyI2NhZt 27ZFSEgImjZtyqllPdW+fXs0bNgQv/32G8aMGSM6Dmm5li1bIikpSeXFkcvpiIjUSC6XIz4+HmPG jMHYsWNRUVGB5cuXIyQkBM2aNWNp1HMTJ07EiRMncO/ePdFRSMsNHToUOTk5KCsrU+l1OeJIRKQG jx49QlRUFH766SfUqVMHffr0QWBgIJ9TpL9p3rw5HB0dsXfvXkyZMkV0HNJi1tbWMDc3x5kzZ9Cr Vy+VXZfFkYioFuXn52Pr1q3Yu3cvWrVqhbFjx6Jly5YcWaQXCgkJwcqVK1FYWAhHR0fRcUiLtWvX DidPnlRpceRUNRFRLcjPz0dgYCD8/f1x9+5dLF68GNOmTUOrVq1YGumlbG1t0aJFC+zatUt0FNJy gwcPRmFhIR48eKCya7I4EhHVgq1bt+LOnTtYtWoVRo0aBWtra9GRSItMmTIFV69eRW5urugopMXM zMzQqFEjnDp1SmXXZHEkIqoFFy5cwKBBg2BsbCw6CmkhMzMztG3bFhEREeB2y1QTXbt2RVJSksqu x+JIRKRicrkcOTk5aNKkiegopMUmT56Mu3fv4vz586KjkBbz9fVFSUkJbt68qZLrsTgSEalYbm4u zM3NYWZmJjoKaTGpVIpu3bohMjISCoVCdBzSUkZGRrC3t0daWppKrsfiSESkYhcvXuRoI6nEqFGj UFlZiZSUFNFRSIv16tULycnJKnnsgcWRiEjFMjMzuY0KqYREIsHbb7+N6OhoPHnyRHQc0lLdu3eH TCbD1atXa3wtFkciIhU7f/48RxxJZQYOHAhDQ0MkJCSIjkJaSiKRwNnZWSXT1SyOREQq9NfCGGdn Z9FRSIf4+/tj//79qKioEB2FtJSfnx9SU1Mhl8trdB0WRyIiFcrNzUWDBg1Qv3590VFIh/j4+KBB gwaIi4sTHYW0lKenJ+rUqYOsrKwaXYfFkYhIhS5evAgXFxfRMUgHjRs3DocPH0ZpaanoKKSlmjZt itTU1Bpdg8WRiEiFuDCGaou7uztsbW0RExMjOgppqcGDByMjIwNVVVVvfA0WRyIiFeLCGKpNQUFB SElJQXFxsegopIVcXFxgZmaGjIyMN74GiyMRkYrI5XLk5uZyYQzVGicnJ7i4uGD37t2io5CWatWq FZKTk9/4/SyOREQqkpeXh/r163NhDNWqkJAQXLx4EdevXxcdhbTQkCFDkJubiz/++OON3s/iSESk IjwxhtShYcOGcHd3R1RUlOgopIWsra1hYWGBM2fOvNH7WRyJiFSEC2NIXQIDA3H9+nVkZ2eLjkJa qH379jh58uQbvZfFkYhIRTIyMjjiSGphYmKCDh06ICIiQiXnD5N+GTRoEG7duoX79++/9ntZHImI VOCvhTEsjqQuEydORGlp6RtPOZL+MjU1hY2NDU6dOvXa72VxJCJSgby8PJiZmXFhDKmNkZER+vTp g6ioqBofI0f6p2vXrkhMTHztEWsWRyIiFeCJMSTCsGHDUF1djcTERNFRSMu89dZbePToEQoLC1/r fSyOREQqwIUxJIJEIsHgwYOxd+9eyGQy0XFIixgZGcHe3v61p6tZHImIVIAnxpAoffv2hbGxMeLj 40VHIS3Tp08fJCcnv9Z0NYsjEVENyeVy5OTksDiSMKNGjcLBgwdRVlYmOgppER8fH1RXVyMvL++V 38PiSERUQ1evXuXCGBKqY8eOsLKywm+//SY6CmkRiUQCZ2dnpKSkvPp7ajEPEZHOKy0txdKlSzna SMJNnDgRx48fx4MHD0RHIS3i5+eH06dPv/LKfBZHIqLXpFAokJ2djTVr1qBTp05QKBQYP3686Fik 51q0aAEHBwfs3btXdBSNJa+sxO3fDyNnw3e4vHYDbkTvh+xBiehYQnl4eEAqleLixYuv9HqjWs5D RKT1lEolbty4gaSkJCQmJiI1NRVSqRStWrWCpaUlKisrYWZmJjomEYKDg/HJJ59gwIABaNy4seg4 GuXRlVxc+WYTKovvwsDAAAYGwN2kVNyIjkHz9ybDpld3wMBAdEwhmjVrhuTkZLRr1+4fX2ug5FlF RETPKC0tRWJiIk6ePImkpCSUlZWhVatWcHNzQ+vWrWFtbQ0DAwNUVlZi8eLFeOuttzBw4EDRsYmw du1aGBoaYubMmaKjaIyyghvImL8EZjBAZ2k9WBsaQQIlSuUKZMgqcKv6CVrNmg7rnt1ERxXixo0b WLVqFdauXQtjY+OXvpYjjkRE/3Xnzh3Ex8cjNjYWFy5cQPPmzdGyZUuEhITAyckJEsmzT/cYGxtj 2rRp+Prrr9GsWTO4ubkJSE70/4WEhGDRokXIy8tD8+bNRccRT6FAzjebUFcJDKhnhjpPRxUNYGlo iL71zHCsogy5322FuUcbSC0thMYVwcnJCQ0aNEBGRga6du360tfyGUci0mv5+fnYvHkzhg8fjv79 ++O3335D27Zt8fnnn2PmzJnw8/NDkyZNnlsa/9KiRQv4+vri22+/xcOHD9WYnuhZDRo0QNu2bREZ Gfnax8npooeXruDx9RvwMJL+r9L4d+2lxpBXVqD4+Ek1p9McrVq1wsmT//z7Z3EkIr1z6dIlrFmz Br6+vnj33XeRmpqKPn364Msvv8R7770Hb29v1KtX77WuOWzYMNjZ2WHz5s1QKBS1lJzo1QQGBqKo qAiZmZmiowhXfuPPI/UaGr14ktXcUAKJxABlN17v+D1dMnToUFy9ehWPHj166etYHIlIbzx8+BDz 5s3DqFGjcPnyZQwfPhxffPEFJk2ahLZt20Iqldbo+nPmzMHdu3cRExOjosREb0YqlaJr166IjIzU +y8yBv8tjNWKF4++ygEolYCBoaGaUmmehg0bomHDhkhPT3/p61gciUgvHDp0CH5+frh37x4+++wz jBkzBq1atXrpFPTrkkqlmDlzJuLj45GVlaWy6xK9iTFjxqCsrAxpaWmiowjVoGULAECR4sX7FN6V V0OpVMK8lX4/o9yuXbt/nK5mcSQinXb//n3MmDEDy5Ytw4QJEzBx4kSYmprW2v2cnZ0xePBgbNmy BSUl+r0/HIklkUjw9ttvY/fu3aiurhYdRxgTJ0dYd+uCS7JKlDynPMqUSpyuqoSJvR2se/gISKg5 3nnnHRQVFeHu3bsvfA2LIxHpJKVSif3798PPzw8ymQxLly5FmzZt1HLvAQMGoEmTJti0adMrn8ZA VBsGDBgAAwMDJCQkiI4iVPOpwTCyssTv5X/gvKwSRdVPcE9ejSuyKsRUPEaZgQHcZk2HpIaPq2g7 ExMT2Nra4tSpUy98jeHy5cuXqy8SEVHtu3PnDmbNmoWYmBgEBQWhd+/eMHrJg/G1oXPnzoiNjcWj R4/g7u6u1nsT/cXAwACmpqaIjo5G37591f73QFNIpFLY9u2Fyrt3kZ//H+RXy3D1iQy35E9Qz9UF nssWwLSJs+iYGqGqqgonTpxA//79YfCcVejcAJyIdIZSqURkZCQ+//xzdO/eHe+8806NF7zUxM2b N/HZZ59hypQp8PLyEpaDaPHixfD29sawYcNERxGu/OYt/HElDwp5NUydndDArbnenhjzPNXV1Zgz Zw7mz58PJyenZ36dU9VEpBMKCwsxceJEbN68GTNmzIC/v7/Q0ggADg4OGDFiBMLDw3H//n2hWUi/ BQQE4NChQ9xnFICJQ2PY9usF+7f7/blwhqXxb4yMjGBvb4+UlJTn/jqLIxFpNYVCgW3btmHIkCGw sbHBokWL4OLiIjrWU3379kWLFi2wYcMGvV6gQGK1bdsWNjY23CqKXknfvn2RkpLy3K2cWByJSGvl 5+dj1KhR2L59O0JDQzF48GAYauA+bDNmzEBFRQUiIiJERyE9FhQUhOTkZBQXF4uOQhquS5cuUCqV yM3NfebXWByJSOvI5XKEh4fD398fzZo1w/z58+Hg4CA61gtJJBLMnTsXqamp/7i5LlFtcXZ2RpMm TbBnzx7RUUjDSSQSODk5PXe6msWRiLRKfn4+Ro8ejcjISISFhWHAgAEq3cS7tlhbWyMgIADbtm3D nTt3RMchPRUcHIwLFy6goKBAdBTScIMGDUJ6evozj9ho/qctERGeHWWcN28eGjduLDrWa+nRowfc 3d2xYcMGyGQy0XFID1lbW6Nly5aIjIwUHYU0XOvWrWFsbIyLFy/+7ecsjkSk8fLz8xEQEICIiAit GmV8nqlTp0KhUGDHjh2io5CeCg4Oxn/+8x9cvnxZdBTScM2aNUNSUtLffqadn7xEpBfkcjl+/PFH +Pv7o2nTppg/f77WjTL+X38973j27FkkJyeLjkN6yMzMDB06dEBkZCS4lTO9zJAhQ3Dx4kVUVlY+ /RmLIxFppL9GGX/99VetH2X8v6ysrDBhwgTs2LEDN2/eFB2H9NCkSZPw4MEDnDt3TnQU0mCOjo4w NzfH2bNnn/5MNz6FiUinHDp0CEOHDtWZUcbn8fb2Rvv27bFhwwZUVVWJjkN6xsjICD169EBkZORz 9+oj+kubNm3+NjvC4khEGiUxMRELFizARx99pFOjjM8TFBSEOnXqYNu2bZwyJLV79913IZPJcPLk SdFRSIMNHToUV69efXrqkO5+IhOR1klPT8fMmTMxZcoUNG/eXHScWieRSBAWFobs7GycOHFCdBzS MxKJBO+88w727NnDVf70QhYWFrCyssLp06cBsDgSkYbIzs7G1KlTMXHiRLRq1Up0HLVp0KABgoKC EBUVxb31SO369+8PqVSKI0eOiI5CGqxTp05PV1ezOBKRcFevXsXkyZMxatQoeHl5iY6jdu3atUOX Ll2wfv16lJeXi45DembUqFGIjY1FWVmZ6CikoQYOHIji4mIUFxezOBKRWIWFhZg4cSIGDRqELl26 iI4jzMSJE2Fqaooff/yRzzuSWnXq1AmWlpY4ePCg6CikoYyNjWFjY4O0tDQWRyISp7i4GBMmTECP Hj3Qu3dv0XGEmzdvHq5evYrDhw+LjkJ6ZsKECTh27BhKSkpERyEN1b17d5w8eZLFkYjEKC0txcSJ E+Hp6Qk/Pz/RcTSCqakppkyZgn379uHatWui45AecXNzQ+PGjbF3717RUUhD9enTB+Xl5SyORKR+ MpkMgYGBcHJywvDhw2FgYCA6ksZwd3dHr169sHHjRj5zRmoVGBiI9PR0FBUViY5CGsjIyAgODg4s jkSkfuvWrYNcLseYMWNYGp9j9OjRsLKywpYtW/i8I6mNg4MDmjVrhl27domOQhqqf//+LI5EpF4X LlzA9u3bERgYqNObe9fU3LlzcePGDcTFxYmOQnokODgYly9f5qMS9FwdO3ZkcSQi9amqqkJoaChG jBgBS0tL0XE0mrGxMaZPn44DBw4gJydHdBzSExYWFnB3d0dERARHu+kZEomExZGI1Gft2rWwsLCA j4+P6ChaoXnz5vD19cW3336LR48eiY5DeiIoKAi3b99GVlaW6CikgVgciUgtzp49i4iICIwfP57P Nb6GYcOGwdbWFps3b4ZCoRAdh/SAsbExvL29OepIz8XiSES1rqKiAnPnzsXo0aNhbm4uOo7WCQ0N RXFxMWJiYkRHIT0xZswYPH78GKdOnRIdhTQMiyMR1bovv/wS1tbW8Pb2Fh1FK0mlUsyYMQPx8fGc PiS1MDIyQt++fbFr1y5UV1eLjkMahMWRiGrV6dOnsWfPHowdO5ZT1DXg4uKCwYMHY8uWLTzdg9Ri 8ODBAIDjx48LTkKahMWRiGrNX1PUAQEBnKJWgQEDBsDZ2RmbNm2CXC4XHYd0nEQiwdChQ7F//35U VlaKjkMagsWRiGrN6tWr4eDggE6dOomOojNmzZqF0tJSREdHi45CeqBnz54wMTFBfHy86CikIVgc iahWpKSk4MCBAzwdRsWMjIwwa9YsnDhxAhkZGaLjkB4YO3Ys4uLi8Mcff4iOQhqAxZGIVK6srAzz 58/H2LFjUb9+fdFxdI6joyP8/f0RHh6O+/fvi45DOq5t27awsbHBgQMHREchDcDiSEQqpVQqsXjx Yjg7O6NDhw6i4+isfv36wc3NDRs2bOCqV6p1kyZNQmJiIu7duyc6CgnG4khEKiOTyTBv3jxkZGQg ICBAdByd9+GHH6K8vBwRERGio5COc3V1hbOzM/bs2SM6CgnG4khEKlFaWooJEybg2rVrmD9/PszM zERH0nkSiQRhYWFITU1Fenq66Dik44KDg5GRkYEbN26IjkICsTgSUY0grIJ8AAAgAElEQVRdu3YN w4cPh6WlJaZPnw5jY2PRkfSGtbU1Ro8ejW3btuHOnTui45AOs7GxQcuWLbFr1y7RUUggFkciqpHU 1FSMGjUKPXv2REBAACQSfqyoW8+ePeHu7o4NGzZAJpOJjkM6LDg4GNeuXUNOTo7oKCQIP+GJ6I1F Rkbigw8+wKRJk9C3b1/RcfTa1KlTIZfLsX37dtFRSIeZmZnBy8sLv/76K5RKpeg4JACLIxG9NoVC gc8//xxr165FaGgoPD09RUfSexKJBHPnzsW5c+eQkpIiOg7psIkTJ+L+/fvcR1RPsTgS0WupqKjA 9OnTcezYMcyfPx8ODg6iI9F/NWzYEBMmTMD27dtx8+ZN0XFIR0mlUvTo0QNRUVFQKBSi45CasTgS 0SsrLi7G6NGj8fDhQ8yePZvnT2sgb29vtG/fHhs2bEBVVZXoOKSjRowYgaqqKo5u6yEWRyJ6Jf/5 z38wcuRIuLq6YsqUKZBKpaIj0QsEBQXByMgI27Zt43NoVCskEgl8fX2xe/duLsjSMyyORPSPsrOz MXr0aPTo0QPDhw/n2dMaTiKRYN68ecjOzkZiYqLoOFqr4tZt3IqLR0HUHtxNTEb14zLRkTSKn58f 6tSpg2PHjomOQmpkJDoAEWm206dP4/3338eIESPg4+MjOg69ogYNGmDy5MkIDw+Hi4sLnJ2dRUfS GgqZDPk/78Stg/F/+7lhvXpoMTUI1j18AH55AvDnlPUvv/yCnj17wsTERHQcUgOOOBLRCx05cgRT p07FpEmTWBq1UPv27dGlSxesX78e5eXlouNoB4UCmctX4XbcYbSqY4y3TepjuKk5+tQzRaMn1bj8 zSYU7o8VnVJjeHt7o0GDBoiLixMdhdSExZGInmv37t0ICwvDtGnT0LZtW9Fx6A1NnDgRZmZm+PHH H/m84yu4se83PMrJQ8+6JuhoXA82hkYwlUjgYCTFW/XM0LSOFP/ZEYmy6zx27y/jx4/HkSNH8PDh Q9FRSA1YHInoGeHh4Vi9ejVmz56NFi1aiI5DNTR37lzk5eXh8OHDoqNoNGW1HIV79qOxUR041Xn+ 4q9OdU0gUShxY2+MmtNprtatW8Pe3h779u0THYXUgMWRiJ5SKpX44osvEB4ejrlz58LJyUl0JFIB MzMzTJkyBfv27cO1a9dEx9FYFUVFqC6vgLXhix//r2NgAEuJIR7nXlVjMs0XGBiI1NRUFBUViY5C tYzFkYgAAHK5HIsXL8bBgwcRFhYGGxsb0ZFIhTw8PNCzZ09s3LgRZWVcHfxc/93MWoKXL3wxgBJK bnz9N46OjmjatCmio6NFR6FaxuJIRJDJZPjoo49w7tw5zJkzBxYWFqIjUS0ICAiApaUltmzZwucd n8PYzhaGUinuKapf+Bo5gBKlAmZNXdSWS1sEBwcjKysL+fn5oqNQLWJxJNJzZWVlCAoKQlFREWbN mgVTU1PRkagWhYWF4caNG1wF+xwSqRT2A31x44kMxfLnl8fzVRWoVirhMHigmtNpPisrK7i7uyMy MpJfTHQYiyORHispKcG4ceMgkUjwwQcf8DQYPWBsbIzp06fjwIEDyMnJER1H4zQZMwImDo1xpKIM l2SVKFMooFACJXI5kiv//JnjkEFo0MpNdFSNFBgYiMLCQmRnZ4uOQrXEcPny5ctFhyAi9bt9+zbG jh0LZ2dnjB8/HhIJv0fqCysrK8hkMuzevRvdunVD3bp1RUfSGAaGhrDu1gUVRUW4er0Al59U4aKs ErlPqvBIAriMD0CTUf7cAPwF6tSpg3v37iExMRF9+vThKVM6yEDJ8WQivXP16lVMmjQJXbt2xaBB g/jhrqdWr14NiUSCsLAwfnH4v5RKPMy6hJILF/Hkj8eoZ2eLRl06wdjOVnQyjVddXY2wsDCMGzcO 3t7eouOQirE4EumZrKwsBAYGYtCgQejdu7foOCSQTCbDwoUL0atXLwwbNkx0HNIh+/btQ1JSEj77 7DMYGhqKjkMqxK+YRHpELpfjo48+gq+vL0sjQSqV4qOPPkJ8fDyysrJExyEdMmTIECgUCiQmJoqO QirG4kikRyIiIiCVStGvXz/RUUhDuLi4YNCgQdiyZQtKSkpExyEdIZFIMGTIEOzduxdVVVWi45AK sTgS6Yny8nJ8/fXX8Pf35zON9DeDBg2Ck5MTNm3aBLlcLjoO6YjevXujXr16iI+PFx2FVIjFkUhP /PDDD3B2dubZ0/Rcs2fPRmlpKU/+IJUaPXo04uLi8Mcff4iOQirC4kikB+7du4fw8HD4+/uLjkIa ysjICLNmzcKJEydw/vx50XFIR7Rv3x6NGjVCbGys6CikIiyORHrgm2++QceOHWFvby86CmkwR0dH DB8+HD/88APu378vOg7piAkTJuD48eP8M6UjWByJdFx+fj727duHIUOGiI5CWqB///5o0aIFNmzY gOrqF5/ZTPSqmjdvDkdHR+zZs0d0FFIBFkciHfc///M/6NOnD8zNzUVHIS0xY8YMlJeXIyIiQnQU 0hEhISE4d+4cbt68KToK1RCLI5EOy8jIQFpaGvz8/ERHIS0ikUgQGhqK1NRUpKeni45DOsDW1hYt WrTArl27REehGmJxJNJRSqUS//rXvzBw4EDUq1dPdBzSMra2thg9ejS2bduGO3fuiI5DOmDKlCnI zc1FXl6e6ChUAyyORDrq6NGjuHnzJk+IoTfWs2dPuLu7Y8OGDZDJZKLjkJYzMzODl5cXIiIiwNOO tReLI5GO2r17N3r27AkjIyPRUUiLTZ06FdXV1di+fbvoKKQDJk2ahDt37uDChQuio9AbYnEk0lEX LlxAmzZtRMcgLSeRSBAWFoazZ88iJSVFdBzSclKpFN26dUNkZCQUCoXoOPQGWByJdNC9e/dQUlIC BwcH0VFIBzRs2BDjx4/H9u3buSqWamz06NEoLy9Hamqq6Cj0BlgciXTQhQsX4OrqComEf8VJNbp2 7QovLy9s3LgRVVVVouOQFpNIJPDz88Pu3bvx5MkT0XHoNfFfFSIddP78eTg5OYmOQTomODgYhoaG 2LZtGxc3UI34+vrC0NAQCQkJoqPQa2JxJNJBZ8+ehaurq+gYpGP+et4xKysLiYmJouOQFpNIJBg+ fDj279+PiooK0XHoNbA4EukYpVKJzMxMFkeqFebm5pg8eTIiIyNRUFAgOg5psW7duqFBgwaIi4sT HYVeA4sjkY65fv06JBIJrKysREchHdWhQwd4e3tj/fr1HC2iGhk3bhwOHz6M0tJS0VHoFbE4EumY 8+fPo2nTpjAwMBAdhXTYpEmTYGpqivDwcD7vSG/M3d0dtra2OHDggOgo9IpYHIl0TEZGBpydnUXH ID0QFhaGvLw8HD58WHQU0mJBQUFITk5GcXGx6Cj0ClgciXTM5cuX0bhxY9ExSA+YmZlhypQp2Ldv H65duyY6DmkpJycnuLq6Yvfu3aKj0CtgcSTSMaWlpTA3Nxcdg/SEh4cHevbsiY0bN6KsrEx0HNJS wcHBuHjxIq5fvy46Cv0DFkciHVNaWgpTU1PRMUiPBAQEwMLCAlu2bOHzjvRGGjZsCHd3d0RFRYmO Qv+AxZFIxzx69AhmZmaiY5CemTdvHm7cuMGtVeiNBQYG4vr167h06ZLoKPQSLI5EOqSyshIymQwm Jiaio5CeMTY2xrRp03DgwAHk5OSIjkNayMTEBB06dEBERARHrjWMTCbD+fPnsW3bNhZHIl3y1zQ1 z6gmEdzc3PDWW2/h22+/xaNHj0THIS00ceJElJSU4MyZM6Kj6L3Kykqkp6fjhx9+wLx583D8+HF0 69YNRqKDEZHqlJSUoH79+qJjkB7z9/fHlStXsHnzZoSFhfFLDL0WIyMj9OnTB1FRUWjfvj0MDQ1F R9IrZWVlOH/+PM6fP49Lly7B3d0dgwYNwpo1a2BnZwcALI5EuoQLY0gThIaGYuHChYiJicGwYcNE xyEtM2zYMJw8eRInT55E7969RcfReQ8fPsS5c+eQmZmJ3NxcdOrUCaNGjUL//v3RsGHDZ17P4kik Q0pLS7kwhoSTSqWYMWMGvvzyS7Ro0QJt2rQRHYm0iEQiweDBg7F37174+PhAKpWKjqRzFAoFMjIy kJCQgP/85z/o0aMHAgMD0bdvXzRo0OCl72VxJNIhJSUlMDY2Fh2DCK6urnjnnXfw3XffYfny5bC0 tBQdibRI37598fvvv+PIkSMYOHCg6Dg1IpPJcO7cOSQnJ6NLly7o1q2bsCxlZWVISkrC8ePHYWlp iaCgIAwePBj16tV75Wvw4RMiHXLixAmkpaWhtLRUdBQiDBo0CE5OTti0aRPkcrnoOKRlRo0ahdjY WK3cWF6pVCInJwc///wz5s+fj4yMDPTs2RMHDhzAkSNH1J7n1q1b2L59OxYtWoSHDx9i3bp1+O23 3zBq1KjXKo0AYKDkmncinbFhwwasX78etra2WLRoEad4SLjq6mosXLgQXbp0wciRI0XHIS3z8ccf w8PDA6NHjxYd5ZUUFxcjNTUVp06dglQqxYgRI+Dv7w9HR0cAQEFBAcaPH4+uXbtiwIABMDAwqLUs CoUCFy9eREJCAgoKChAQEIAJEybAwcGhRtdlcSTSIYWFhRg4cCCMjY3h7OyM6dOn1+oHE9GrKCws xOrVq/Hee++hXbt2ouOQFsnLy8PatWvxySefwMrKSnSc55LJZEhNTUVaWhpu376Nd955ByNHjoSX l9dzP39v376N8ePHw8PDA8OGDVP5Z3RFRcXT6WhTU1MEBwdj2LBhrz2y+CIsjkQ65v3334eJiQmO Hj2KHj16YMSIEaIjEeHw4cPYt28fli1bhkaNGomOQ1pk1apVsLe3R1BQkOgozxUdHY3Tp09j+fLl 6NevH+rWrfuP77l37x4mTJiAJk2aYPTo0Sopj0VFRUhISEBqaio6d+6MkJAQ+Pj4qLyY8hlHIh0T EhKCtLQ0zJ49G8eOHUNSUpLoSER466230Lx5c2zcuBHV1dWi45AWCQoKwunTp3H79m3RUZ4hl8uR kpKCn376CQMHDnyl0ggAjRo1wq+//oqioiL88ssvUCgUb3R/pVKJrKwsbNiwAZ9//jmcnZ1x4MAB hIeHo1u3brUy48TiSKRjOnfuDHNzc5SUlCAwMBA7duzA5cuXRcciwkcffYSysjJERESIjkJaxN7e Hs2bN0dUVJToKM/IzMyEvb09Wrdu/drvtbCwwPbt21FWVoatW7e+1gKyyspKJCQkYOXKldizZw+G Dx+O5ORkLFmyBM7Ozq+d5XWwOBLpGAMDAwQHB+PYsWPo1KkTfH19sXHjRhQVFYmORnpOIpFg7ty5 SE1NRXp6uug4pEVCQkKQk5ODvLw80VH+JiUlBWPGjHnj95uZmWHbtm0wNDTEd999hydPnrz09Xfv 3kVUVBQWLVqE69evY+XKlTh8+DAmTZqktsMfWByJdNDQoUNx69YtFBYWYtiwYXB3d8eaNWvw+PFj 0dFIz9na2mLUqFHYtm0b7ty5IzoOaQlzc3N4enoiMjISmrI0o7S0FJcuXcLgwYNrdJ169erhhx9+ gJWVFb799lvIZLK//bpSqcSlS5fw7bff4l//+hesra0RHR2Nbdu2oXfv3mo/1pPFkUgH1a1bF/37 90diYiIAYOrUqahfvz7Wr1/P58tIuF69eqFNmzbYsGHDM/9IEr1IUFAQioqKkJmZKToKACAtLQ39 +vWDhYVFja8llUqxadMmuLi4YP369aioqIBMJsOJEyfw6aef4tdff8XAgQORlJSElStXomnTpir4 HbwZFkciHWVoaAhzc3MAf04RLly4ECUlJdi6davGfGMn/fX++++juroa27dvFx2FtIRUKkWXLl0Q GRn5xotJVEWpVCI1NRUBAQEqu6aRkRG++uortG3bFrNmzcLChQuRm5uLJUuWICEhAcHBwahfv77K 7vemWByJdJBSqURCQgI8PT2f/szIyAgLFizAxYsXERsbKzAd0Z9fZkJDQ3H27FmkpKSIjkNaYuzY sSgvL0daWprQHNeuXUN1dTV8fHxUel1DQ0OsWrUKa9asQUREBLZv347+/fvD0NBQpfepCRZHIh10 5coVyOXyp6cV/MXKygozZszAwYMHuTiBhLO2tsa4ceOwfft23Lx5U3Qc0gISiQT9+vXD7t27hT52 k5KSgtGjR9fK84UGBgYYOnQo3NzcVH5tVWBxJNJBx44dg4eHx3P38GrRogUCAgKwdetWXLt2TUA6 ov/Px8cHXl5e2LhxI6qqqkTHIS0waNAgAEBCQoKQ+1dVVeH06dN6e4QmiyORDjp69Cg8PDxe+Os9 e/ZEr169sG7dOty7d0+NyYieFRwcDENDQ2zbto3P39I/kkgk8Pf3x/79+1FZWan2+6enp6Ndu3Y1 PvNZW7E4EumYo0eP4ty5c/+4IW1AQACaNGmCtWvXoqKiQk3piJ4lkUgQFhaGrKyspzsBEL1M9+7d Ub9+ffz+++9qv3daWppKF8VoGxZHIh0SERGBsLAwzJ8//5WOvpo1axYkEgk2btwofJUi6Tdzc3NM njwZERERKCgoEB2HtEBAQAAOHTqER48eqe2ed+7cwc2bN+Hr66u2e2oaFkciHaBUKrFhwwasWbMG oaGhaN68+Su9TyKRYPHixSgqKsKOHTs4TUhCdejQAd7e3k/3sSN6mbZt28LGxgYxMTFqud+NGzew fv16DB069JXPpNZFLI5EWk4ul+Pjjz9GVFQU5s+fj8aNG7/W+42NjTFv3jycOnUKR44cqaWURK9m 8uTJMDU1xY8//sgvMvSPgoKCkJSUhLt379baPYqKirBlyxZ88803mDhxIhYsWFBr99IGLI5EWqyq qgozZszAmTNnEBYWBktLyze6jq2tLaZMmYI9e/bgwoULKk5J9HrCwsKQm5vLLzL0j5ydneHi4oI9 e/ao/Nr37t3Dtm3b8Pnnn6NLly5ISEjABx98gHr16qn8XtrEcPny5ctFhyCi1/fo0SMEBQWhvLxc JR9mtra2qFOnDnbs2AFPT8+np85QzfyRdxW3fvsdxSeS8MeVXBjWrYu6jRqKjqXRpFIpHB0d8fPP P6N169Zv/IWI9IObmxsiIyNV9rlVWlqK6Oho7NixA71798aGDRvQr18/vZ6e/t8MlJwLINI6V65c wXvvvYfmzZtj3LhxKt2EduvWrcjMzMTHH3+skjNY9ZW8shL5/96J24f+HDWTSAygUPz5cWvbrxea BU2EoZ6PXPyTnTt3Ij09HStXroSpqanoOKTB1q1bhydPnmDu3LlvfI0//vgDcXFxOHnyJIYPH44Z M2bA1tZWhSl1A6eqibTM77//jrFjx8Ld3R3jx49X+ckFQUFBsLW1xddffw2ZTKbSa+sNpRKXvlyH ovij8KxbD/5m5hhraoF3zSzgVbce7iYkImvVlwC/t7/U2LFjYWlpiS1btvB5R3qp4OBg5Ofn48qV K6/93rKyMuzbtw8ff/wxzMzMcPDgQXzyyScsjS/A4kikJWQyGZYtW4alS5di6tSpGDVq1HNPhlGF efPmQSaT4fvvv+c/2G+g6EgCSjIuoGtdE7SVGsPE4M+P2noGBnCXGqN7XRM8vHQFN39T/x502iY0 NBQFBQWIi4sTHYU0mJmZGTp06IDIyMhX/syqqqpCbGwsli5diurqakRHR+OLL7545qhW+jsWRyIt cP36dbz77rvIzMzE4sWLa/0MU4lEgkWLFiEvLw/R0dG1ei9ddDP2EMwNjdC0jvS5v+5sJEVDQyPc imVx/CcmJib44IMPcODAAeTk5IiOQxps0qRJuH//Ps6ePfuPr01PT8fixYtRUlKCnTt3YuPGjWjW rJkaUmo/FkciDXfgwAEMHz4c7u7u+PDDD1G/fn213NfMzAyhoaE4duwYkpKS1HJPXaCUy1FxoxAN JYYvfV1DiSEqi+9CLuDING3j5uaG/v3749tvv1XrZs+kXYyMjNC9e3fs2rXrhQcaKJVK/Pbbb9i1 axfWrVuH8PDwfzxli/6OxZFIQ1VWVmLRokX49NNPMX36dPj5+dXa1PSLODk5ITAwEDt27MDly5fV em9tZSCRABIJ5MqXn8Qjx5/TaQaGLy+Y9Kd3330XNjY22Lx5M085ohcaMWIEnjx58twvu9XV1fjp p5+QmZmJ6Oho9OjRQ0BC7cfiSKSBrl69Cn9/f+Tm5mLx4sVCp1A6deoEX19fbNy4EUVFRcJyaA0D A9Rv3hR3lQooXvColRJKFCvkMHNxhqROHfXm02Jz587FnTt31HZSCGkfiUSCAQMGIDo6+m+L+x4/ foxvvvkGBgYG2L17N59jrAEWRyINEx0djZEjR6JDhw6YNm2aRmxDMmzYMLi7u2PNmjV4/Pix6Dga z3mUP8rlcpyXPf/YvKyqSvwhl8N51LtqTqbdpFIpZsyYgfj4eGRnZ4uOQxrqrbfeglQqxdGjRwEA t2/fxurVq9GhQwds3bpVbY/76CpuAE6kISoqKrBo0SJERETggw8+QIcOHdQ+Nf0yHTp0wKlTp3D6 9Gn4+PiofBsgXVLPzhbyx49x7fIV3FcoYARAaQDck8uRIatEzpMq2PXtBUf/IaKjah1LS0soFApE RkbCx8cHxsbGoiORBrKwsMCuXbtgZ2eH7777Dh9++CHmzJnDzy0V4AbgRK/o4cOHSE9Px82bNzFm zBhIpc9fMfsmcnJyMH36dFhbW2PChAkae6RVdXU1Fi1ahBYtWmDKlCkaVWw1jlKJoiMJuLb1F8ir qp7+WFKnDlwnjkXjgW8D/O/3xr744gvIZDIsWLAAhnxOlJ7jo48+QlVVFbZs2YJ+/fqJjqMzWByJ XuCvopiSkoKUlBTk5+ejWbNmuH37NlxcXLBlyxZYWVnV6B5KpRKRkZFYvXo1hg4dil69eml8GXvw 4AFWrFgBX19fvPPOO6LjaLzqx2UoOZ8JWUkJ6pibw7KdJ+o04FRZTVVXV2PBggXo2rUrRo4cKToO aRClUom9e/ciPT0d69atQ+fOnUVH0iksjkT/9aKi2KxZM7i5uaFp06aQSqVQKBSIiorCpUuX8MMP P7zxnoplZWVYvHgxzp49i5CQEDg5Oan4d1R7cnNz8c033yAwMBCdOnUSHYf0VEFBAb744gtMmTIF 7dq1Ex2HNIBMJsNPP/2E8vJy/PDDD7CxsREdSeewOJJe++ts0l27diEjIwNubm7PFMUXSUhIwI4d O2BtbQ0LCwtYWFjA0tISVlZWsLKygqWlJSwtLZ/+/K/X1K9fH1euXMGHH34IR0dHjBkzRiuf00pM TMSvv/6KuXPnomnTpqLjkJ46fPgw9u3bh2XLlqFRo0ai45BAOTk52L59Ozw9PfHVV19p7CM/2o7F kfROdXU1EhMTsWvXLhw/fhwtWrSAt7c3vLy8ULdu3de6Vnl5OR4+fIiysjKUlZXh8ePHT/93eXk5 ysvLn/7s8ePHePToERQKBRQKBSZNmoTu3btr/NT0y0RERCAlJQVLlizhP9okzNdff41Hjx5h0aJF MDIyEh2H1Oz+/fuIjo5Gfn4+FixYgKFDh3IRTC1icSS9oFQqcfHiRURHRyMmJgYWFhbw9vZGp06d YGFhodYcMpkMSqVSK0cZn2ft2rW4d+8elixZwm/4JIRCocCCBQvQrl07jB8/XnQcUhOZTIZDhw7h 6NGjGD9+PKZPn64R25fpOhZH0mk3b97Evn37EB0djUePHsHb2xtdunSBg4OD6Gg6Q6FQYNmyZbCw sOB2FyRMUVER/vWvf2Hy5Ml87lbHKZVKnD17FtHR0XB3d8fSpUvRpEkT0bH0Bosj6aTy8nLMnTsX iYmJ6NixI7y9vdGyZUuWmlpSWVmJJUuWwMvLC+PHj9fq6XfSXidOnEBUVBSWLFkCW1tb0XGoFhQW FiIyMhIVFRVYvnw5evbsKTqS3mFxJJ1z8+ZNTJkyBQ0bNkRAQACnLtTkzp07+PTTTzF8+HD0799f dBzSU38djbl06VKV7rVKYpWVlWH//v1IT0/HjBkzMGnSJNThcZ1CcPiFdMq5c+fw7rvvwsPDA0FB QSyNamRra4v33nsP0dHRuHDhgug4pKc++OADVFdXY8eOHaKjkAooFAocP34cy5Ytg5WVFeLj4xES EsLSKBCPHCSdsWfPHoSGhiIgIEArNtLWRba2tqhTpw527NgBT09PmJubi45EesbAwADt2rVDREQE LCwstGp/VPq7nJwcbN68GY8ePcI333yD8ePHw8TERHQsvcepatJ6CoUCX331FXbt2oUPPvgAzs7O oiPpva1btyIzMxMff/yxWletE/0lJSUF27dvx8KFC7kYTstwex3NxuJIWq28vByzZ89GQUEBpk6d ypKiQT7//HNUVlZi4cKFfNaMhPj++++Rn5+PZcuWvfYeraR+3F5HO7DCk9a6desWRo4cibKyMsye PZulUcPMmzcPlZWV+P7778HvpyRCSEgIJBIJ/v3vf/PPoAZTKpU4c+YMVqxYgUePHmHfvn2YN28e S6OG4ogjaaVz585h2rRp6NmzJwYOHMjnGTXU48ePsXTpUvTo0QMjRowQHYf00MOHD/Hxxx9jxIgR 6NWrl+g49H9wex3twxFH0jp79uxBcHAwRo4ciUGDBrE0ajAzMzOEhoYiISEBSUlJouOQHjI3N8ek SZMQERGBgoIC0XHov8rKyrBz506sXbsW/v7+iIuLY2nUEhxxJK3BRTDaKz09HVu3bsXMmTPRsmVL 0XFID23duhXZ2dlYuXIlj8YUSKFQIDExETExMXj77bcxb948nnOvZVgcSSvk5uZixYoVuHv3Lt5/ /30+z6iF9u/fj/j4eCxevBh2dnai45CeUSgUWLFiBWxsbDB9+nTOVKiZUqnE+fPnERMTA0tLS6xY sQKenp6iY9EbYHEkjaVUKpGUlIQtW7YgMzMTvXr1wsCBA7lCV6N03AcAACAASURBVItt3rwZ165d w8cffwwzMzPRcUjPPH78GEuWLMGQIUN4upGa/HWudFxcHJRKJWbNmoUhQ4Zwex0txuJIGqeqqgr7 9+/H999/j8rKSvTt2xc+Pj4sjDpAoVBg1apVMDQ0xLx582BkZCQ6EumZCxcu4LvvvsPcuXPRtGlT 0XF0lkKhwOnTpxEXFwdjY2PMnDkTAwYMgKGhoehoVEMsjqQx7t+/j19++QW//PILGjdujL59+8LT 05NTSjqmuroaixYtgpubG0JCQvj/L6ndjh07cObMGaxcuZJbvqiYXC5HSkoKDh06BHNzc8yaNQtv vfUWRxh1CIsjCVdaWorVq1fjt99+Q4cOHdCvXz8eE6bjHjx4gBUrVsDX1xfvvPOO6Dikhz755BOY mZlh9uzZ/PKiAtXV1Th58iTi4+Nha2uLWbNmoU+fPvxvq4NYHEmoiooKjBs3DoaGhhg/fjzPNtYj eXl5+PrrrxEYGIhOnTqJjkN6pry8HIsXL4avry8GDhwoOo7WkslkSExMRHx8PFxcXDBr1ix069aN hVGH8QEjEubJkyeYNm0aTExMEBQUxKkMPdO8eXMEBARg69atsLKy4vNmpFYmJiaYNm0a1q9fj2bN msHNzU10JK1SWVmJ48eP4/Dhw2jTpg02btyIzp07i45FasARRxJCoVA8PWP6ww8/5APTeiwiIgIp KSlYsmQJ93Mjtdu1axeSkpKwYsUKNGjQQHQcjVdRUYFjx47hyJEjaN++PWbOnAkvLy/RsUiNWBxJ 7ZRKJZYtW4a0tDTMmTOHq6UJa9euxb1797BkyRJuzkxqt2rVKhgZGSEsLIwzHy9QVlaGI0eOICEh AV27dsXMmTPRpk0b0bFIAP4NIbVbt24dTpw4gRkzZrA0EgBg1qxZkEgk2LRpExQKheg4pGfCwsJQ VFSEmJgY0VE0zh9//IHo6GgsWbIE/4+9+46K6nq/Br4ZiiCgiCIWwK5RbDHYicFo1MSEJvaODXvE qBixJJbYsSsaA/auWIIVNJbYMCo1dgNRkI5UgZl5/8gP3/hNNCozc+7M7M9armQJ3LtJlNlz7z3n USgU2Lt3LzZs2MDSqMdYHEmjtmzZgt27d2PChAncBoNekslkmDFjBhITE7Fr1y7wRghpkomJCcaN G4dTp04hNjZWdBxJyMzMxL59++Dv7w9TU1McOnQIq1at4rOgxOJImhMSEoLVq1djwoQJHBlI/2Bq aoopU6bgypUrCA8PFx2H9Ezt2rXRrVs3BAYGIjMzU3QcYdLS0rBr1y7Mnj0bVlZWCA0NxdKlS7l4 jV7iM46kEefOncOkSZMwYcIE1KhRQ3QckrCSyR6jRo1C06ZNRcchPbN48WIUFxdj2rRperVoLzk5 GSdPnkRERAQ8PT3h4+ODqlWrio5FEsTiSGp348YNDB8+HKNGjeJtDnorp06dwpEjRzBt2jRuBk8a VVxcDD8/P7Rp0wZeXl6i46hdUlISjh8/jtu3b6N3794YMWIEKleuLDoWSRiLI6nV77//jn79+mHA gAHcsoHeSVBQEKKiojBr1iw+2kAaFR8fj8WLF2PEiBFo1qyZ6Dhq8eeff+L48eOIjY3FgAEDMGzY MFhbW4uORVqAxZHUJiEhAT179sQXX3wBZ2dn0XFICy1atAj5+fn49ttvuQKfNOrUqVM4evQoZs+e rVP7i/7xxx84fvw47t27hyFDhmDw4MF8Y0bvhMWR1CIlJQU9e/ZEmzZt0KVLF9FxSEspFArMmDED dnZ2GDNmDMeYkUYFBAQgOzsb3377LYyMtHvQ2oMHD3DixAk8fvwYw4cPx8CBA2FhYSE6FmkhFkdS uefPn6NPnz6oU6cOPDw8RMchLZeTk4OZM2fC2dkZPXr0EB2H9IhCoYCfnx+aN2+Ofv36iY7zzpRK Je7du4fjx48jKSkJI0aMQP/+/bnJPpUKiyOpVH5+PgYNGgQLCwsMGDCAV4hIJRISErB48WL06dMH 7du3Fx2H9EhSUhLmzZuHoUOH4qOPPhId560olUrExsbixIkTyMjIgI+PD3r16gVTU1PR0UgHaPe1 d5KU4uJijB8/HgYGBujfvz9LI6mMvb09Bg8ejKCgIFSqVAkNGjQQHYn0RJUqVdCzZ08EBwfDzs4O tra2oiO9llKpRFRUFE6cOIHc3FyMHTsWnp6efD6YVIpXHEklFAoFJk+ejPv372PcuHEwNjYWHYl0 0JEjR3D69GnMmDEDVapUER2H9MjatWuRlJSEmTNnSrKIZWZmYuvWrUhPT8fXX38NV1dXrX8uk6SJ k2Oo1JRKJebNm4fo6GiMHj2apZHUxtXVFY6Ojli+fDlycnJExyE9Mnr0aBQVFWHnzp2io/zDrVu3 MH/+fLRt2xZhYWHw9PRkaSS1YXGkUlu3bh1Onz6NcePG8RkaUruRI0fC0tISq1evRnFxseg4pCdk MhkmT56M3377DZcvXxYdBwDw4sULbN++Hfv378fatWsxbdo0vnEntWNxpFLZsWMHtmzZggkTJsDS 0lJ0HNIDMpkM06ZNQ0ZGBoKDg8GnbUhTbGxs0KdPH+zYsQNPnz4VmuXx48dYsGABzMzMEBoaijZt 2gjNQ/qDzzjSv1IoFEhPT0dKSgqSk5Nf/kpKSnr5z5KPzZkzB9WqVRMdmfRMeno6vvvuO3Tp0gXd u3cXHYf0yKZNm/Do0SPMnj0bZcqU0ei5FQoFTp48iTNnzsDf3x+enp5ciEgaxeJI/zB9+nTs27cP pqamqFChAqysrFCuXLmXv8qXL4/y5cvDysoK1tbWGv/BSVTi/v37WLFiBYYMGQInJyfRcUhPKBQK zJw5EzVr1sTw4cM1VtzS0tKwZcsWGBsbY+XKlXBwcNDIeYn+jsWRXhEXF4evvvoKBgYGmDp1KurU qSM6EtEbXbhwAbt378bkyZNRu3Zt0XFIT2RmZmLWrFnw8vJChw4d1H6+q1evYu/evRgyZAjGjRsH Q0NDtZ+T6N8YzpkzZ47oECQNcrkcw4YNQ6dOnWBvb49du3ahefPmfHaRJK1GjRrIzs7GgQMH4OTk hLJly4qORHrA1NQUNjY22L59O5o2bYry5cur5Tz5+fnYvn07IiIisH79enh4eEAm4/IEEod/+uil zZs3o6ioCB07doSHhwecnJywZMkSpKamio5G9EZ9+vRBjRo1EBAQgPz8fNFxSE84OTmhVatWWL16 tVr+3N27dw/z5s1D5cqVERoaihYtWqj8HETvisWRAACPHj3C2rVrMXDgwJfvZgcPHoxatWph6dKl yM7OFpyQ6M0mTpwImUyGdevWQaFQiI5DemLgwIEwMzPDTz/9pLIV/nK5HCEhIQgMDIS/vz+WLVsG CwsLlRybqLRYHAkKhQLTpk1D586dUbVq1Vc+Nm7cOJQvXx7Lli1DQUGBoIRE/00mk2HGjBlITEzE zp07uU0PaYRMJsOUKVNw7949hIeHl/p4ycnJWLp0KZ49e4aff/6ZOwaQ5LA4Enbu3InU1FR069bt Hx8r2TNPqVRi1apVKCoqEpCQ6O2YmppiypQpuHbtmkpexInehoWFBYYNG4aDBw/i4cOH73UMpVKJ ixcvYuHChfDw8MDOnTv/8UaeSApYHPXc06dPsXTpUgwYMOC1q/RKruRkZGRg06ZNvA1IkmZra4vh w4fj4MGDiIyMFB2H9ESTJk3Qvn17rFu3Drm5ue/0tbm5udi4cSN++eUXbN++HT4+Plw1TZLF4qjH lEolvv32Wzg7O6NmzZpv/FwTExPMmDEDDx8+xPbt23kbkCStadOmcHV1xcaNG5GQkCA6DumJfv36 oVy5cti4ceNb/4yMjY3F999/j3r16uHYsWNo3LixmlMSlQ6Lox47cuQI7t+/jy+//PKtPt/CwgLT pk3Db7/9hpCQEDWnIyqdrl274qOPPkJAQAAyMzNFxyE98c033+CPP/7AiRMn3vh5RUVF2LdvH4KD g7Fw4ULMmzcPZmZmGkpJ9P5YHPVUZmYmvvvuOwwYMAAmJiZv/XU2NjaYPHkywsPDcebMGTUmJCq9 oUOHwtbWFitXrkRhYaHoOKQHypYti9GjR+Pnn3/G3bt3//Vznjx5gkWLFiE3NxfHjx9Hp06dNJyS 6P2xOOqpdevWwdHREfXr13/nr7W3t8eYMWMQEhKCq1evqiEdkepMmTIFBQUF2LRpEx+xII1o0KAB XFxcsH79ejx//vzl7yuVSoSHh2PZsmUYNGgQgoODYWNjIzAp0btjcdRDT548wZ49e+Dm5vbex2jY sCEGDx6MrVu3Ijo6WoXpiFSrZHHX/fv3cfDgQdFxSE94eXnBxsYGgYGBUCgUyMrKwtq1axEREfFy dCAnwJA24qxqPeTr64vCwkJ4enqW+lhhYWE4dOgQfH19OSeYJC0hIQGLFy9Gnz590L59e9FxSA8U FhbCz88P1tbWyMrKgru7O6ZOnYoyZcqIjkb03vh2R8/ExcXh7Nmz6Nq1q0qO16lTJ3Tq1AkBAQF4 +vSpSo5JpA729vYYPHgwdu3ahTt37oiOQ3rCzs4OT58+xcqVKzFz5kyWRtJ6LI56ZuHChejatSvM zc1Vdsy/z7VOS0tT2XGJVM3JyQldunTBmjVrkJSUJDoO6bA//vgDCxYsQLVq1XD58mU4OzuLjkSk EiyOeuTy5cv4/fff4eLiovJjl8y1XrJkCedak6S5urqiUaNGWL58OXJyckTHIR2jUChw4sQJrFy5 EmPHjkVgYCAqVKggOhaRyvAZRz2hUCjg5uaG1q1bo127dmo7x6JFi/DixQv4+fnB1NRULechKi2F QoH58+fDyMgIU6ZMgZGRkehIpAPS09MRHBwMmUyGlStXolatWqIjEakcrzjqiePHjyMnJwdt2rRR 2zlK5lorFAqsWrUKxcXFajsXUWmU/FnNyMhAcHAwt+mhUouIiMD8+fPh4uKCgwcPsjSSzuIVRz1Q VFSETp06wdPTE02bNlX7+QoLCzFr1iw4ODjAx8eHW06QZKWnp+O7775Dly5d0L17d9FxSAsVFBRg 9+7dePjwIQICAtCyZUvRkYjUiq/oemDnzp0oV64cmjRpopHzmZiYwN/fn3OtSfKsra0xfvx4HD9+ HBEREaLjkJZ58OAB5s2bB2tra4SGhrI0kl5gcdRxOTk5WL16NTw8PGBgYKCx8/59rvXhw4c1dl6i d1W3bl307t0bQUFBePjwoeg4pAUUCgWOHj2K9evXY+rUqVixYgXKlSsnOhaRRhjOmTNnjugQpD5r 165FQUGBkFmo5ubmcHR0xI4dO2BiYsINwkmyatSogezsbBw4cABOTk4oW7as6EgkUSkpKVi7di1e vHiBLVu2oFWrVqIjEWkUrzjquNDQULUuiPkv9vb2GD16NA4dOsS51iRpffr0Qc2aNREQEID8/HzR cUhilEolLly4gIULF8LV1RW7d++GnZ2d6FhEGsfiqOMKCwthbW0tNAPnWpO2mDBhAmQyGdatWweF QiE6DknEgwcPsHjxYly4cAHBwcEYO3YsDA0NRcciEoLFUccVFBRIYsRVy5Yt4enpiQ0bNvA5MpIs mUyGGTNmIDExETt37uTCLj2XlpaGH3/8EYGBgRg4cCBOnjyJZs2aiY5FJBSLo47Lz8+HiYmJ6BgA /ppr/emnn3KuNUmaqakppkyZgmvXriE8PFx0HBIgPz8fBw8exNy5c9GsWTOcPXsWAwYM4FVGIrA4 6jSlUimZK44lPD090aJFC861JkmztbXF8OHDcfDgQURGRoqOQxqiUCjwyy+/YNasWVAoFPj5558x bdo0WFpaio5GJBksjjrsxYsXUCgUkrniWGLo0KGca02S17RpU7i6umLTpk1ISEgQHYfULCYmBvPm zcOtW7ewceNGrFu3Dvb29qJjEUkOi6MOy8/Ph6mpqUb3b3xb48aNQ7ly5bBs2TIUFBSIjkP0r7p2 7YoWLVogICAAmZmZouOQGjx58gSrV6/G7t274evri0OHDuGjjz4SHYtIslgcdVheXp6kblP/nUwm g5+fH+dak+QNHToUtra2WLlyJQoLC0XHIRXJzs7Grl27sHTpUnTu3BlnzpyBq6srR6QS/Qf+DdFh JVccpUomk8Hf3x8ZGRnYuHEjtz8hyZoyZQoKCgqwadMmrrTWckVFRThx4gRmz56NihUr4syZMxg7 dizMzMxERyPSCiyOOiwvL09yzzf+LxMTE8yYMYNzrUnSSrbpuX//Pg4ePCg6Dr0HpVKJiIgIzJkz B0+ePMGuXbuwcOFC2NjYiI5GpFVYHHVYXl6epK84luBca9IGFhYW8PX1xblz53Dx4kXRcegdPHr0 CEuXLsXJkycxf/58bN++HQ0bNhQdi0grGYkOQOqjDVccS9jY2GDy5MlYsmQJLC0thczWJvov9vb2 GDx4MIKDg2FjY4MGDRqIjkRvkJaWhsOHDyMuLg4TJ05Ev379YGTElz2i0uAVRx0mpc2/3wbnWpM2 cHJyQpcuXbBmzRokJSWJjkP/oqCgACEhIZg7dy4aNWqE8PBwDBo0iKWRSAVYHHWYlFdVv07Dhg0x aNAgbNu2jXOtSbJcXV3RqFEjBAQEICcnR3Qc+j8KhQIXLlzArFmzUFhYiGPHjuHbb79F+fLlRUcj 0hksjjpM2644lmjVqhXc3d0515okbdSoUbCwsMCaNWu4nZQExMbGYsGCBYiIiMD69euxYcMGODg4 iI5FpHNYHHWYNj3j+L86d+4MFxcXzrUmyZLJZJg2bRrS09OxZcsW7gggSFJSEtauXYsdO3ZgwoQJ OHz4MFq2bCk6FpHOYnHUYXl5eTA2NhYd4715eXnhww8/5FxrkiwTExP4+fkhMjISoaGhouNojFwu x40bN/Dw4UO8ePFCSIbs7Gzs3r0bixYtwieffILw8HC4u7tzA28iNeOTwjpMW7bjeRNvb2+sXr0a S5cuxbfffgtLS0vRkYheYW1tjfHjx2PFihWwtbWFk5OT6EhqlZmZic2bNyM+Ph5VqlRBfHw8bG1t YW9vj2rVqsHe3h52dnawsrJSy/mLi4tx9uxZHD9+HF26dMHp06dRuXJltZyLiP6JxVGH5ebmau2t 6r8bO3YsFi5ciGXLlsHPz0/ry7BUFCQ9Q0LIMTz//R6UxYUo62CPat26wKqpo+hoWqdu3bro3bs3 goODYW1tjdq1a4uOpBb37t3Djz/+CHd3dxw+fBhGRkYoKCjA3bt3ERcXh+joaJw7dw53796Fqakp HBwcUL16ddjZ2cHOzg62trbvfUVQqVTi5s2bOHjwIBwcHLBz5040atRIxd8hEf0XAyUfzNFZEydO RMWKFeHs7Cw6SqkpFArMnj0blpaW8PX15bYapfQs/Bfc/3ELUFwEK5khDAFkKpQoUshRtUsn1PEe BAMjQ9Extc7u3btx5coV+Pv7o1KlSqLjqIxSqURYWBhCQ0Pxww8/4PPPP3/j5ysUCsTHxyMuLg6x sbGIjo5GXFwcsrOzX16RrF69+st//683uI8fP8aBAweQl5eHGTNmoFOnTjAwMFDlt0hEb4nFUYeN GDECderUQatWrURHUYnCwkLMmjULDg4O8PHx4bNM7ykzMhpR3y+EnbExWpuUhen//XdUKIGYwnxE FhbA3uMr1OzfW3BS7bRixQqkpKTA399fJ+YfFxQUYNu2bUhJSUFgYCDq1Knz3sdKS0tDXFwc4uLi EBMTg5iYmJe3vO3t7VG1alU4ODjAzs4O5cuXR0ZGBkJCQhATE4Px48djwIABWv3cNpEuYHHUYf36 9UPLli3RrFkz0VFUJicnB7Nnz0bz5s0xYMAAXnV4R8qiYlwbPRFlc3LxhanFv/73i3iRh7tFhfhw 8TyY16ohIKV2K7k6bmVlhUmTJmn1G5ykpCQEBgaicePGWLx4MczNzVV+jv+91R0TE4O7d+/C2NgY 2dnZGDx4MMaPH6+2ZyaJ6N2wOOowd3d3fPbZZzo3kzUlJQXz58+Hi4sL3N3dRcfRKhm3oxA9dxHa mpqjtvG/3x7MUypwKCcLdm7dUWtgXw0n1A0FBQXw9/dH8+bN0b9/f618gxMREYGdO3diwoQJGDp0 qEa/h5Jb3cbGxqhevbrGzktE/0173wrTG5W8e9eFW2X/q2SudXh4OMLCwkTH0SoFSc8AAOUNX/9X v6yBDEYyGQqepWgqls4xNTXFlClTcO3aNYSHh4uO807kcjn27duHAwcOYNOmTfD29tZ48ZXJZKhZ syZLI5EEsTjqmMePH2PixIno27cvPDw8UKOGbt5q5Fzr92P8f9sZ5Stef6OhSKlEsUIBI/Oymoql k2xtbTF8+HAcPHgQkZGRouO8lczMTKxYsQLp6ek4evQoN9Imon9gcdQRSUlJmD59Otzc3KBUKjF3 7lx8/vnnWnmL7G1xrvW7K+/4ASCTIaG46LWf8+f/fcyqWWNNxdJZTZs2haurKzZt2oSEhATRcd7o 3r17+OGHH9C2bVvs2LGDeyMS0b8ynDNnzhzRIej9paenY/ny5fDz84ONjQ1GjBiBZs2a6cT+jW+j evXqMDExwfbt2/HBBx+gQoUKoiNJmqGpKaBQ4HFUNCxkMlQwfHVbowy5HBcL82HeoB5qD+wL6PAb D02pW7cunj17hsOHD6N169aS24e0ZKudXbt2Yf78+Rg2bJhWL+ghIvXi4hgtlZOTgx9//BHBwcH4 8MMP0b17d1hbW4uOJcz+/ftx/vx5+Pn5oVq1aqLjSJqyuBgxC5YiIzIaVQyNYGtkDGMYIE1RjEfF RShjXQHN5s5Emco2oqPqlEWLFqGgoADTp0+XxBs7pVKJe/fuITQ0FPn5+diwYUOpttohIv3A4qhl SvZU27BhAz744AN0794dVapUER1LEn766SdERUXB398fFStWFB1H2pRKPAk9hYS9B1CUmwcAkBkZ ovInH6P2kP4w1MFFVaIpFArMmDEDdnZ2GDNmjLDHSJKSknD16lVcu3YNpqam8PT0hLe3t1q22iEi 3cPiqEUyMzPRr18/GBgYoFevXrC3txcdSXJWrVqFxMREzrV+S8riYuQ9TYSyWA6zqrYsjGqWk5OD mTNnwtnZGT169NDoeSMiInDt2jU8e/YMX375JXr06IFmzZrp9HPQRKR6LI5aoqQ02tnZoXfv3vxh /xoKhQILFy5EUVERpk2bJrnnyYgSEhKwePFi9O7dW63jQIuLixEZGYlr164hNjYW7dq1g5eXF1xc XCRxq5yItBOLoxbIyMhA//79WRrfEudak9RFREQgODgY48ePR4MGDVR2XKVSiUePHuHq1auIiIhA jRo10LNnT3Tv3p2TV4hIJVgcJS4jIwP9+vWDvb09S+M7KJlrXbLfI1eJktQcOXIEp0+fxowZM0r9 nHJaWhouX76M69evQ6lUwtPTE+7u7qhdu7aK0hIR/YXFUeIGDBgAQ0NDDBo0iKXxHXGuNUnd+vXr 8fjxY8ycORMWFhbv9LV5eXm4ceMGIiIiEB8fj27duqFHjx5wcnLiGyUiUhsWRwl78OABvLy88MMP P/CZpPeUnJyMBQsWcK41SZJCocD8+fNhbGyMb7755j8fq5DL5YiJicG1a9dw+/ZttGzZEl5eXujU qZNOjhclIulhcZSw7777Ds+ePYOXl5foKFotPj4eS5cuhZubGzp16iQ6DtErCgsL4e/vjwYNGrxx LnRRURF8fX1Ro0YNeHl54auvvoKNDffaJCLN4v0MicrPz8ehQ4fQoUMH0VG0noODA0aNGsW51iRJ JiYm8PPzQ2RkJEJDQ1/7eVevXkXjxo0RGhoKb29vlkYiEoLFUaIOHz6MWrVqcV6sijg6OmLAgAHY tm0bYmJiRMcheoW1tTXGjx+P48ePIyIi4h8fLxkL6OPjIyAdEdH/x+IoQUqlElu2bMHHH38sOopO adOmDdzd3bF+/Xo8fPhQdByiV9StWxe9e/dGcHDwP/58xsTEwMjICJ988omgdEREf2FxlKCbN28i IyMDTZs2FR1F53Tu3BkuLi5YsWIFnj59KjoO0Ss+/vhjODs7Y9WqVUhNTX35++Hh4Rg+fDhXSxOR cPwpJEHbtm2Ds7MzXyTUxMvLC82bN8eSJUuQlpYmOg7RK/r06YOaNWtixYoVyM/PR0JCAhISErgr ABFJApuJxKSlpeH06dNo37696Cg6zdvbG7Vq1cLSpUuRnZ0tOg7RKyZMmAADAwOsX78eZ86cwYAB A7jdDhFJAoujxOzduxfNmjVD+fLlRUfReePGjYOlpSWWL1+OgoIC0XGIXpLJZJgxYwbi4+Nx+fJl DBgwQHQkIiIALI6SIpfLsWPHDm7BoyEymQx+fn4oLi7G6tWrUVxcLDoS0UumpqZo3rw5OnTowK13 iEgyWBxVRKFQICEhAampqXjx4sV7HeOXX36BsbEx6tatq+J09DoymQwzZ85EamoqAgMDoVAoREci AgC8ePECkZGRmDZtmugoREQvcXKMChQVFeHrr7/GyZMnYWpqioKCAhgZGcHc3BwWFhYvf1laWuLD Dz9Ejx49UKVKlX8cZ8iQIXBwcICLi4vmvwk9x7nWJDVnz57F48ePsW3bNtFRiIheevNgVPpP+fn5 GDVqFLKzs7FmzRqYmJhAoVCgoKAA+fn5L/+Zl5eHrKwsXL9+HRs2bMBHH32EPn36oFOnTjA2NkZ8 fDx+++039OrVS/S3pJcsLCwwbdo0LFiwAOXKlYObm5voSKTHFAoFwsPDsWjRItFRiIhewSuOpfD8 +XMMHToUxsbG8Pb2hpHR2/XwgoICXL9+HZcvX0ZKSgo8PDzw4MEDGBkZoW/fvmpOTW/CudYkBTdv 3sSpU6dw4sQJXv0mIknhFcf3lJqaikGDBsHW1hb9+/d/pz0XTU1N8fHHH+Pjjz/G06dPcenSJVy4 cAHfffedGhPT2yiZa71+/XpYWFigdevWoiORHgoPD8eIMzCKWQAAIABJREFUESNYGolIcnjF8T38 +eefGDBgABwdHeHp6ckf7jroypUr2L59O0aPHg1HR0fRcUiPPHr0CIGBgbh48SJMTExExyEiegVX Vb+j+/fvo2fPnmjVqhVLow5r06YNXF1dOdeaNC4sLAyDBg1iaSQiSWJxfAdRUVHo06cPunbtim7d urE06rguXbrgk08+4Vxr0pjU1FRERUVxw28ikiwWx7d09epVDB48GD179uQG3XqkZ8+eaN68OZYu Xcq51qR2Z8+ehbu7O6ysrERHISL6VyyObyEsLAw+Pj4YPHgwWrZsKToOaZi3tzdq1KjBudakVvn5 +bh06RK8vb1FRyEiei0Wx/8QEhKCb775Bj4+PmjSpInoOCTI+PHjOdea1OrChQto1aoVatWqJToK EdFrsTi+wdatWzFv3jx8/fXXqFevnug4JFDJXGu5XM651qRycrkc586dw6hRo0RHISJ6IxbHf6FU KrFq1SqsW7cOkydPhr29vehIJAEymQz+/v6ca00qd/XqVVSvXh1OTk6ioxARvRGL4/9QKBSYN28e Dhw4gClTpsDW1lZ0JJIQExMTzJw5Ew8fPsSOHTvAbVCptBQKBU6fPo2xY8dypwYikjwWx7+Ry+WY OnUqzp8/D19fX1SoUEF0JJKgkrnWN27cwJEjR0THIS138+ZNmJmZoWPHjqKjEBH9JxbH/5OTk4Oh Q4fizp07mDRpEiwtLUVHIgmrXLkyfH19ERYWhrCwMNFxSEsplUqcOnWKVxuJSGuwOAJITExEz549 AQATJkyAqamp4ESkDUrmWh86dAhXr14VHYe0UFxcHF68eIEvvvhCdBQiorei98UxOjoaHh4eaNiw IQYPHgxDQ0PRkUiLODo6YsCAAdi2bRtiYmJExyEtc/LkSYwePZo/d4hIa+h1cQwPD4eXlxesra3x 5Zdf8lYRvRfOtab38fDhQ6SkpKBHjx6ioxARvTW9LY5bt27FN998AxcXF/zxxx/IysoSHYm0WJcu XeDi4sK51vTWTp48ieHDh8PExER0FCKit6Z3xVEul2Pu3LkIDAzEN998g169eqFq1arYvXu36Gik 5by8vDjXmt7KvXv3cPfuXfTt21d0FCKid6JXxTE/Px8+Pj749ddfMXXqVFSpUgUAMGbMGERFRfEZ NSo1zrWm/5KWlobNmzdjzpw5MDc3Fx2HiOid6E1xTE5ORq9evZCbm4uvv/76le12rKys4OLiguDg YBQWFgpMSbpg/PjxsLCw4Fxr+ofc3FysWbMGAwcOhIeHh+g4RETvTC+K4507d+Dp6YlatWph2LBh MDY2/sfneHp6wtDQEMeOHROQkHSJTCbD9OnTOdeaXlFcXIyNGzeiTZs2GDdunOg4RETvReeL48WL F9G3b1907doV7u7ur105LZPJMGLECISFhXFxA5Xa3+dab9y4kXOt9ZxSqcS2bdtQoUIFzJ8/nzs4 EJHW0uniuHv3bowfPx7Dhg1D+/bt//Pz69SpA0dHRwQFBXEGMZVayVzrBw8ecK61njty5AjS0tKw bt06GBkZiY5DRPTedLI4KhQKLF68GCtXrsTkyZPRsGHDt/7akSNHIjU1FRcvXlRjQtIXJXOtIyIi ONdaT124cAHXr19HUFAQLCwsRMchIioVnSuOcrkcEyZMwJkzZzB16lRUq1btnb7eyMgIXl5e2Lt3 L54/f66mlKRPKleujEmTJuHMmTMIDw8XHYc0KDo6GocPH0ZQUBBsbW1FxyEiKjWdK447d+5EZGQk fH19Ub58+fc6Rvv27WFra4s9e/aoOB3pq5o1a8LHxwcHDx7EtWvXRMchDYiPj0dQUBDWrFmDBg0a iI5DRKQSOlUc09LSEBAQgCFDhpR6GsOYMWNw+/ZtxMbGqigd6TtHR0f0798fW7du5Z6hOq7kecaZ M2eiXbt2ouMQEamMThXHRYsWoUWLFqhZs2apj2Vtbc29HUnl2rZti6+++opzrXVYXl4e1q5di4ED B8LT01N0HCIildKZ4njz5k2cOXMGbm5uKjtmyd6OoaGhKjsmUdeuXV/OtU5MTBQdh1SouLgYgYGB aN26NfdqJCKdpBPFUS6XY8aMGXBzc1PpCC+ZTAZvb2+cPn2aL/CkUl5eXmjWrBmWLFnCudY6gns1 EpE+0IniuHPnTigUCjg7O6v82PXq1UPDhg0RHBzMffhIpYYNGwYHBwfOtdYRR48eRVpaGtavX8+9 GolIZ2l9cSxZENOrVy+1vcMfOXIkkpOTcenSJbUcn/TXhAkTYGlpybnWWu7ixYu4fv06goODVXrX g4hIarS+OKpyQczrmJiYoEePHti7dy+vDJFKyWQy+Pn5obi4mHOttVRMTAxCQkIQFBSEypUri45D RKRWWl0c1bEg5nWcnZ1RuXJl7N69W+3nIv0ik8kwc+ZMzrXWQgkJCfjpp5+wdu1a1K9fX3QcIiK1 09riKJfL4e/vr/IFMW8yevRoREZG4vfff9fI+Uh/lMy1vn//Pudaa4n09HSsXbsWs2bNQtu2bUXH ISLSCK0tjrt27UJxcbFaFsS8TsWKFfHxxx8jODgYRUVFGjsv6QcLCwv4+flxrrUWyMvLw5o1azBo 0CB4eHiIjkNEpDFaWRzT0tKwfPly9O7dW+NbXnh5eUGpVOL48eMaPS/pB861lj65XI6NGzeidevW GDt2rOg4REQapZXFccmSJWjSpIlaF8S8jkwmw/Dhw3Hy5Enu7UhqUbNmTYwaNYpzrSWosLAQQUFB sLKy4l6NRKSXtHKzsQcPHgh9pqhevXpo0KABgoOD4efnxxcPUrnGjRu/nGttbm4OR0dH0ZH0Qm5u LpKTk5Geno709HRkZGQgKysL6enpSE1NRVZWFurWrYsDBw5wr0Yi0kta+ZPPwMAAxsbGQjP4+Phg 6tSpuHz5Mtq1ayc0C+mmtm3b4vnz51i/fj18fX1Ru3Zt0ZF02osXLzBp0iTUqlUL1atXR/Xq1dGs WTNUq1bt5S9bW1sWRiLSa/wJ+J5MTEzg6emJ3bt3o2nTprCwsBAdiXRQ165dkZ2djRUrVmD69Omo WrWq6Eg66/fff0fz5s2xf/9+0VGIiCRLK59xlIoOHTqgUqVK2Lt3r+gopMP+Ptc6PT1ddBydFRMT g08//VR0DCIiSWNxLKXRo0fjt99+w927d0VHIR1WMtd6yZIlnF6kBkqlEjExMXBxcREdhYhI0lgc S8nGxgbt2rVDUFAQx8WRWk2YMAEWFhaca60GiYmJUCgUaNiwoegoRESSxuKoAn369IFcLkdoaKjo KKTDZDIZpk+fzrnWahAdHY0OHTpwhwQiov/A4qgCMpkMw4YNw8mTJ/Hs2TPRcUiHlcy1TklJ4Vxr FYqNjUXHjh1FxyAikjwWRxVp0KAB6tevj+DgYM4ZJrUyMTHBrFmzONdaRQoKCvDgwQO0b99edBQi IsljcVSh0aNH4+nTp7hy5YroKKTjONdadeLi4tCwYUOUL19edBQiIsnT2uIoxVvCJiYmcHd3x65d u5Cbmys6Duk4zrVWDd6mJiJ6e1pZHEeOHIkzZ85IcmVpx44dYW1tjX379omOQnqAc61LR6lU4ubN m9yGh4joLWllcezcuTPatGmDAwcOiI7yr8aMGYOIiAjcu3dPdBTSA40bN0a/fv2wZcsWxMTEiI6j NRQKBbZv346KFStyGx4ioreklcURAObMmYPo6GjExsaKjvIPlStXRtu2bbm3I2lMu3bt4OrqivXr 1+Phw4ei40ieXC5HcHAwMjIysH//fshkWvujkIhIo7T2p6WVlRXmz5+PHTt2SPKWdd++fSGXy3Hy 5EnRUUhPdO3aFZ988glWrFiBxMRE0XEkq7i4GJs2bUJxcTF27NjBRTFERO9Aa4sj8Nct69atW+Pg wYOio/yDTCbDkCFDEBoaiuTkZNFxSE/07NmTc63foLCwEOvWrYOZmRmCgoJgbm4uOhIRkVbR6uII /HXLOioqCnFxcaKj/EPDhg1Rr149bNmyhXvtkcZwrvW/KygowJo1a1ClShVs2rQJZmZmoiMREWkd rS+OJbest2/fLslb1j4+Pvjzzz+54vUNlMXF+DPkGG5M8sPFvkNwxXsM7qxchxfJKaKjaS3OtX5V bm4uVq1ahXr16mHt2rUwMTERHYmISCsZzpkzZ47oEKVVu3ZtREdH4/bt22jSpInoOK8wMjJCmTJl sH//fnTo0IEvWP/jRUoqor7/AcnnL6FsXh5sIYNxURHS4hOQeCocppVtYF7DXnRMrWNgYABnZ2eE h4cjMjISrVq10tsFINnZ2Vi5ciVatmyJRYsWwdDQUHQkIiKtpTOvJHPmzMGVK1ckuQXOp59+Cmtr a+zfv190FGlRKPB7wBoUxv8JFzMLfGlmCWczc3Q2s4B7WUtUVihxZ00gch/Hi06qlUrmWicnJ+vt XOuMjAwsW7YMLi4umD9/vt6WZyIiVdGZn6JWVlZo3bq1JCfKAH/t7Xj9+nXcv39fdBTJSAo7h+d3 76O1iSmqGxm/8jFTAxk+NjWHGYC76zaJCagD9HmudWpqKpYtWwYPDw/4+/vDwMBAdCQiIq2nM8UR +OuWlFS31rCxsUHr1q3x008/QS6Xi44jCSm/XkUZQ0M4GP377XtjAwPUNDRGzsNHeJGSquF0usPC wgLTp0/Xq7nWiYmJWLp0KQYNGoRJkyaxNBIRqYhOFce0tDTJFkcA6N+/P4qKiri34/95kZKKcnjz C3p52V/Po71ITdNEJJ1lY2Pzcq712bNnRcdRq0ePHmH58uUYN24cfHx8RMchItIpOlUcU1NTJV0c ZTIZBg8ejJ9//hkpKVwxbGxVHjl4863THKXi5edS6dSsWRMjRozAgQMHdHKVv1KpxLlz57B69WrM nDkTgwYNEh2JiEjn6ExxLCgoQF5eHiwsLERHeaPGjRujbt263NsRgPVHHyJfLkey/N/HMiqUQHxx EcxsbWBWxVbD6XRT06ZNdXKudX5+Pn788Uf8+uuv2Lt3L9zd3UVHIiLSSTpTHFNTU1GuXDmt2Gqj ZG/H69evi44iVPXuXVG2ahX8WpiPTMWrz30WQ4lrL3KRJS9G3VHDAT6jpjJ/n2v96NEj0XFKLT4+ HgsWLECVKlVw5MgR1K9fX3QkIiKdpTPFMSUlBVZWVqJjvBUzMzN8+eWX2LlzJ3Jzc0XHEUZmYoIG vuNRZGGO0LwcnM/Pwe3CfFwtyMWxvBw8LC5Czb49YdXUUXRUnVMy1zogIEBr51orlUr88ssvWLFi BSZOnIjly5ejbNmyomMREek0nSqOUn6+8X917twZ5cuXx4EDB0RHEcqiVg18tGIxbDt9gicyGaJf FOB+USFktWqg6dyZsO/hJjqizurZsyeaNm2qlXOtS25NX7p0CXv37kWvXr24cpqISAMMlDryoN2O HTtw8uRJDBkyRHSUt5aUlIS5c+fC19cXderUER1HOKVcjsLMLBiVNYMh5whrTEBAAJKTkzFjxgzJ PyMM/HVretOmTWjVqhXmz5/Pq4xERBqkM1ccU1NTYWlpKTrGO6lSpQpatWqFoKAg7u0IwMDQEGUq WrM0atjEiRNhbm4u+bnWvDVNRCSezhTHZ8+eadWt6hIDBw5EQUEBTp06JToK6SmZTIZvv/0WRUVF WLNmDYqL/32VuyipqakICwvDggULcOnSJezZs4e3pomIBNGZ4picnIxy5cqJjvHO/r63Y2oqp6OQ GFKaa61UKvHw4UOEhIRg7ty5mD9/PrKysjBx4kQcPXoUDRo0EJaNiEjf6cwzjm5ubujWrZvWvqgs X74cSqUSvr6+vJJCwuTk5GDWrFlo0aIF+vfvr7E/i4WFhYiLi0NkZCSioqJgamqKzz77DJ07d0ar Vq1gbGz83wchIiK105ni2L59e4wdOxZVqlQRHeW95OXlYfr06Rg4cCCcnJxExyE9lpKSgnnz5uHT Tz+Fm5v6VrUXFhbi2rVriIqKQlxcHOrWrfuyLNavX59voIiIJMhIdABVUCqVSEtL07rFMX9XtmxZ dO/eHTt27ECjRo340D8JY2Njg6+//hrLly9HuXLl0LFjR7Wc5/z589i7dy/mz5+Pjh07onLlymo5 DxERqY5OPOOYlZUFAFpftrp06QJLS0scPHhQdBTSc7Vq1cKIESOwf/9+tc21LtkCqHfv3iyNRERa QieK44EDB1CpUiWduLU1ZswYXL58GQ8fPhQdhfScuudap6Wlwd7eXuXHJSIi9dH64hgZGYlVq1Zh xIgRoqOoRJUqVeDk5MS9HUkS2rdvr7a51snJySyORERaRquLY2ZmJsaMGYNevXrp1AvQ4MGDkZ+f jzNnzoiOQoSuXbuiQ4cOKp1rrVAokJKSolN/b4mI9IHWFkeFQoGJEyeifv36aNu2reg4KiWTyTBo 0CAcPXqUezuSJPTq1Uulc63T09NRrlw5rX8umYhI32htcVyzZg2ePHmC3r17i46iFk2bNkWNGjWw fft26MiOSaTlhg8fDnt7eyxZsgQ5OTmlOlZKSgqqV6+uomRERKQpWlkcL1y4gKCgIIwaNUqnNwYe M2YMHj58iJs3b4qOQgRAdXOtExIS4ODgoMJkRESkCVpXHJ8+fYpJkyZhyJAhqFixoug4amVubo4v vvgC27ZtQ35+vug4RCqZa61UKnHr1i24uLioPiAREamVVhXHwsJCjBkzBs7OzmjSpInoOBrRrVs3 7u1IkvL3udabNm1657nWsbGxyM/Ph7u7u5oSEhGRumhVcZw3bx4A4MsvvxScRLNGjRqFX3/9VeXb oRC9LxMTE/j7++PevXvYtWvXWz+Hq1Qq8fPPP2P8+PEwNDRUc0oiIlI1rSmOhw8fxsmTJzF06FDI ZFoTWyWqV6+Ojz76CEFBQe98dYdIXcqVK4fp06fj2rVrOHbs2Ft9ze3bt5GXl8erjUREWkorGti9 e/cwe/ZsjBgxQqvnUZfGkCFDkJeXh7CwMNFRiF4qmWt96tQpnD179o2fm5WVhd27d+Pbb7+FkZGR hhISEZEqSb445ubmwsfHB66urqhdu7boOMLIZDIMGDAAhw8fRlpamug4RC+9zVzroqIiBAYGolev XujWrZuGExIRkapIujgqlUpMnToVVatWxSeffCI6jnDNmzfn3o4kSSVzrbdu3fqPudZKpRI7duyA nZ0dfH19BSUkIiJVkHRxDA4ORnR0NPr37w8DAwPRcSRhzJgxePDgAfd2JMlp3749unfv/o+51mfO nEFiYiJWrFihd88nExHpGsn+FL9x4wZWrVqFkSNHokyZMqLjSIa5uTm6deuGbdu2lWoDZiJ1+Pzz z1+Zax0dHY1Tp05h8+bNsLCwEB2PiIhKyUApwXueaWlp+PLLL+Hh4QEnJyfRcSRp5syZaNSoEfr2 7Ss6CtE//Pjjjy+fd9y6dSvatWsnOBEREamC5K44yuVyjB8/Hs2bN2dpfIORI0fi0qVLePz4sego RP/Qr18/GBkZwdvbm6WRiEiHSK44BgQEICMjA56enqKjSJq9vT2aN2/OvR1JchQKBTZv3gw3NzdM nz5ddBwiIlIhSRXH1NRUbNiwASNGjOBUibfg7e2NnJwchIeHi45C9NKhQ4dgaGiIuXPnclEbEZGO kVRxPH/+PJo2bQorKyvRUbSCTCZD//79ERISgoyMDNFxiHD58mXcunULGzZsgImJieg4RESkYpIq juHh4WjYsKHoGFqlRYsWcHBwwLZt20RHIT336NEj7N+/Hxs3bkSlSpVExyEiIjWQTHGUy+W4dOkS GjduLDqK1hkzZgzu37+PW7duiY5CeiorKwuBgYGYN28eHB0dRcchIiI1kUxxvH37NsqWLYvKlSuL jqJ1LCws0KVLF2zdupV7O5LG/X2cYPfu3UXHISIiNZJMcTx37hwcHR35MP17+vLLL2FmZobDhw+L jkJ6hOMEiYj0i6SKY6NGjUTH0Go+Pj64cOEC4uPjRUchPcFxgkRE+kUSP+nz8/MRGxuLDz74QHQU rWZvb49mzZrhp59+4t6OpHYxMTEcJ0hEpGckURyfP38OCwsLbt+hAt7e3nj+/DnOnj0rOgrpsMeP H+Onn37CqlWr4ODgIDoOERFpiCSKY05ODsqWLSs6hk4wNDREv379cOjQIe7tSGpx+fJlrF69GjNn zkT79u1FxyEiIg1icdRBTk5OsLOzw44dO0RHIR1SWFiI7du349SpU9ixYwfHghIR6SFJFMfs7GyY mpqKjqFTxo0bh7t37+L27duio5AOSEpKwuLFi1GmTBkcO3aMC9mIiPSUJIpjTk4Oi6OKWVhYoHPn zti6dStevHghOg5psevXr2PJkiUYOHAg1q1bB0tLS9GRiIhIEEkUR15xVA9XV1eYmpoiJCREdBTS QkVFRdi1axeOHj2KoKAgDB06lPusEhHpOUkUR15xVJ9Ro0bh/PnzSEhIEB2FtEhqaiqWLl2K4uJi HDt2DM2bNxcdiYiIJEAyxbFMmTKiY+gkBwcHNGvWDEFBQdzbkd7KzZs38cMPP6BHjx7YvHkzrKys REciIiKJkERxzM7OZnFUI29vb2RmZuKXX34RHYUkTC6XY9++fdi3bx82btwIHx8fToMhIqJXSOJV ITs7G2ZmZqJj6CwjIyP069cPBw8eRFZWlug4JEHp6elYtmwZnj9/jp9//hktW7YUHYmIiCRIMsWR zziql5OTE6pVq4bt27eLjkISExUVhR9++AGff/45tm7diooVK4qOREREEsXiqEfGjh2LO3fuIDIy UnQUkgCFQoGQkBBs374dK1euxMSJE2FoaCg6FhERSZgkimNOTg5vVWtAuXLl0KlTJ2zduhWFhYWi 45BAWVlZCAgIQGJiIo4dOwZnZ2fRkYiISAsYiQ4AsDhqkpubG65du4YjR47Ay8tLdBxSo4KCAhw6 dAh5eXmv/L5CocCNGzcwfPhwTJ48mVcZiYjorQkvjkqlEk+fPuWtag0aMWIElixZgtatW8Pe3l50 HFKD3NxcrF27FhUqVICHh8c/Pu7r68sFMERE9M6EF8dLly6hXLlysLW1FR1Fb9SsWRNNmjRBUFAQ /P39ueWKjnn+/DlWr14NZ2dnzJ49m/9/iYhIZYS/oqxfvx6dOnXii5uGDR8+HJmZmTh//rzoKKRC GRkZWL58Obp164Y5c+bw7xUREamU0FeV6Oho/P7772jXrp3IGHrJyMgIvXv3xoEDB5CZmSk6DqlA amoqli1bht69e2PKlCmcK01ERContDiuW7cOHTt2hImJicgYeqt169aoWrUqdu3aJToKlVJSUhKW Ll2K4cOHY+zYsaLjEBGRjhJWHP/44w9cunQJn3zyiagIhL/2doyNjUV0dLToKPSeEhISsHz5cvj6 +sLb21t0HCIi0mHCiuPGjRvRvn17mJubi4pAAMqXL49PP/0UW7Zs4d6OWujhw4dYuXIlZs6ciT59 +oiOQ0REOk5IcUxJScGRI0fQqVMnEaen/+Hh4QEjIyMcPXpUdBR6B3fu3MG6deuwaNEiuLm5iY5D RER6QEhxDA4OxkcffYQKFSqIOD39i5EjRyI8PBxPnjwRHYXeQlRUFDZt2oSVK1fis88+Ex2HiIj0 hMaLY05ODnbu3IkuXbpo+tT0BrVq1Xq5t6NSqRQdh97gt99+w5YtWxAYGIiPP/5YdBwiItIjGi+O u3btQt26dVGlShVNn5r+w/Dhw5GWloYLFy6IjkKvcf36dezcuRNBQUGc/EJERBqn0eJYWFiIzZs3 82qjRBkZGaFXr17Yt28fsrKyRMeh/3H9+nXs2bMHW7ZsQbNmzUTHISIiPaTR4nj48GFUrFgRderU 0eRp6R20bdsWVapUwe7du0VHob/5e2ls0qSJ6DhERKSnNFYcFQoFNmzYwAf5tcDYsWMRFRWFmJgY 0VEIf5XGvXv3sjQSEZFwGiuOYWFhUCgUfOHTAlZWVnBxcUFwcDD3dhQsIiICe/fuRXBwMP/uEBGR cBopjkqlEuvWrUPnzp05P1dLeHp6wtDQEMeOHRMdRW9FRERgz549LI1ERCQZGimOERERSExMRKtW rTRxOlIBmUyGESNGICwsDE+fPhUdR++wNBIRkRRppDiuW7cOn376KQwNDTVxOlKROnXqwNHREcHB wdzbUYNKSiOfaSQiIqlRe3G8c+cObt26xY2KtdTIkSORkpKCixcvio6iF/5eGhs3biw6DhER0SvU XhwPHDiAli1bokyZMuo+FamBkZERvLy8sHfvXjx//lx0HJ3G0khERFKn9uIYFRWFDz74QN2neW/y /HzkP3mKoufZoqNIVvv27WFra4s9e/aIjqKzSlZPszQSEZGUGanz4EqlEnfu3IGHh4c6T/NeXqSk 4sGPW5D+262Xz+9Z1qmFOsMHw7JeXcHppGfMmDGYNWsWYmNj0ahRI9FxdMrfS6Ojo6PoOERERK+l 1iuOSUlJkMvlqFixojpP884ybkXixtfT8PzWbdQ2MkaLMmZoYFIG8scJuP3td3hy7IToiJJjbW3N vR3VgKWRiIi0iVqLY1xcHBwcHCS1d2NR1nPcWbkO5eUKfGVWDm1MzdHQxBROZcrCtawFahga4eHW nci+/0B0VMnx9PSETCZDaGio6ChaLysrCzt27MDWrVtZGomISGuotTjGxMTAzs5Onad4Z3/sO4Ti nDw4lykLs/8ptIYwQGszc5Q1MMCDH7cKSihdMpkMw4YNw+nTp5GYmCg6jlYqLCzEzz//jO+++w7V qlXDuXPnWBqJiEhrqL04Vq9eXZ2neGcZtyJRQSaDpezfv3UjGKC6zAjZ9x+gOCdXw+mkr169emjY sCH3dnxHCoUCly5dwqxZs5CZmYkDBw5g7ty5qFSpkuhoREREb03txdHe3l6dp3hnxZlZMH9NaSxR 8vHi7BxNRNI6I0eORHJyMi5duiQ6ilaIi4vDwoVTBpHPAAANdklEQVQLceXKFaxcuRKbN29GnTp1 RMciIiJ6Z2pbVf38+XOkpKSgWrVq6jrFeylja4Pnf775NmuWQg4DQ0OYWFtpKJV2MTExQY8ePbBn zx40a9YMlpaWoiNJ0pMnTxASEoLExERMnToVrq6ukP3HmxYiIiIpU9ur2J07d2BnZye5MYM27dsi S16MJHnxv348V6FAgrwYFZ0+hIyblr+Ws7Mz93Z8jaysLGzfvh3Lli1D586dER4eDnd3d5ZGIiLS emp7JYuNjZXcwhgAsHPtDnMHO1wsyEOivOiVj2Uq5Dj3IhcoY4I6wwYLSqg9Ro8ejVu3biEuLk50 FEkoWfgyZ84cVK9eHWFhYRg9ejRMTU1FRyMiIlIJtd2qluLCGAAwMDJEoymTELd0BcL/SICloRHK GxggB0pkyuUwKVcOjSaNhYl1BdFRJa9ixYro0KEDgoODMW/ePBgbG4uOJIRCocDly5dx9OhRNGnS BAcPHuQzjEREpJMMlGpaGvvFF1/A1dUV9evXV8fhS01ZLMeTY8eR8usVvHiWDOPy5VGhRXM4eLnD yMJcdDytoVAoMH36dLRr1w5ubm6i42hcbGwsDh06BDMzM/j7+6NNmzaiIxEREamNWopjfn4+mjRp ghUrVqBs2bKqPjxJzP379xEQEAB/f39UrVpVdByNePLkCQ4dOoRnz55h6tSp+Oqrr/gMIxER6Ty1 3KpeuHAhPvzwQ5ZGPVG3bl00aNAAwcHB8PPzk9SkIFUqKChAdHQ0IiIicPfuXYwaNQpDhw7lM4xE RKQ3VH7FMTw8HH5+fvD394eFhYUqD00SVlhYiKlTp6JXr15o166dWs+Vm5uLoKAgAEDjxo3RpEkT tc1Dz8zMRGRkJCIjI3H37l00btwY3bp1w1dffSW5GexERETqptLimJycjC+++AJDhw5Fw4YNVXVY 0hLnz5/H/v37sWDBArW9aYiPj8fGjRvRsmVLtG7dGhcuXMCvv/4KKysrODo6onHjxqhXr16ptoFK SkrCrVu3EBUVhYSEBLRv3x7dunVDx44dYWXFvT2JiEh/qaw4yuVyDBw4EJUqVYK7u7sqDkla6Pvv v4ednR28vb1VfuyLFy/i0KFDmDFjBry8vF7+fnFxMW7evImzZ88iPDwcT548gaOjIxo1aoTGjRv/ Z9lTKpV4/Pgxbt++jcjISDx//hydO3dG165d0a5dO5iZman8eyEiItJGKiuO69evR0hICL755hvJ bfpNmpOSkoLvv/8e48ePV9mK+qKiIuzZswf3799HYGDgf17NTkxMxPnz5xEWFoYrV66gcuXKL0tk 7dq1IZPJUFxcjDt37rwsi2XKlEHXrl3RtWtXtGjRgn+GiYiI/oVKiuPt27cxZMgQ+Pn5wcbGRhW5 SIvt2rULt2/fxrx582BkVLr1V6mpqdi0aRMcHBywfPlylC9f/p2+vqioCBERES+vRqampqJixYpI SUmBvb09unXrhi5duqB+/fo6u6iHiIhIVUpdHHNycvDFF1+gW7du3MOOAPy1t6Ofnx+cnZ3h6ur6 3seJiYlBcHAwvL29MXr0aJVsd/Pnn3/i9u3baN68uSQ3qCciIpKyUhfHSZMmIS0tDUOGDFFRJNIF d+7cwapVqzBr1izY2tq+09cqlUqEhobi/PnzCAgIgLOzs5pSEhER0bso1SWckJAQXLt2DX369FFV HtIRDRo0eLm347u8N0lMTMSKFStw//59HD58mKWRiIhIQt77imN8fDzc3Nwwbtw41KpVS9W5SAcU FhZiypQp6NOnD9q2bfvaz1MoFIiKisIvv/yCP/74A/369cPEiRNhYmKiwbRERET0X95r5UJxcTEm TJiAzz77jKWRXsvExAQeHh7YtWsXmjZtCnPzV2eA5+bm4tKlSzh//jwsLS0xdOhQuLm5cfsbIiIi iXqv4rhs2TIoFAp06dJF1XlIx7i4uOCXX37B3r17MXToUABAQkICzp07h4iICDg7O2PFihVo2bIl VzUTERFJ3Dvfqg4JCcH3338Pf39/TtGgt5KcnIzvv/8e7dq1Q1JSEpKSktC3b1/069cPVatWFR2P iIiI3tI7XXG8cuUK5syZgwkTJrA00lvJysrC1atXUVRUhJs3b8Lf3x9ffPEFypQpIzoaERERvaO3 Lo53797FmDFjMGTIENSsWVONkUgXpKen49SpU7h8+TI6d+6M/fv3o1mzZqJjERERUSm8VXFMTk7G 0KFD4erqiqZNm6o7E2mx5ORknDx5Ejdu3ECPHj1w+vRpVKlSRXQsIiIiUoH/fMYxJycHvXr1Qt26 deHu7q6pXKRlnj59ipMnTyIqKgr9+vWDt7c3KlWqJDoWERERqdAbi2NxcTG8vb2hUCgwdOhQrnql f4iPj8eJEydw9+5dDB48GIMHD+bzr0RERDrqtbeqlUolpk+fjoyMDIwfP56lkV7x4MEDnDhxAvHx 8Rg2bBh+/PFHWFhYiI5FREREavTa4rhq1Spcv34d33zzDYyM3mu7R9IxSqUSd+7cwYkTJ5CcnIxR o0ahz/9r7/5emuofOIC/STewyFruzEltmtbFqYtm1EUM01pui0oogp6boC4ijM2u+kN0IkjhRSHU lRdRtNUsjBj0y3BLCEuxnTXarP3IzZ2t7XyvJt+g53nMZ2sz3y84HM4uznmfuzefs8/n89dfXLCb iIhonfhpI0wkEnC5XDh58iSXTSEoigK/3w+3243FxUX09vbi7Nmz3BKQiIhonfnb/zhOTEygv78f kiTBarXCbDazKKwziqLg9evXcLvdUBQFDocDp06d4gg0ERHROvWPk2MURcHz588xMDCAd+/eobu7 G4cPH+Yo5B+uUCjgxYsXcLvdqKurg9PphM1mQ01NTaWjERERUQWteMvByclJuFwuTE5OwmKxoKur Cxs3bix3PvqN8vk8fD4fPB4PtFot+vr6cOTIEU6MIiIiIgCr2Kt6enoaLpcLPp8PnZ2dsFgsnE27 xmWzWTx79gwPHz6E0WhEX18fzGYzCyMRERH94JeLY9HMzAyGhobg9XrR0dEBi8XC9fvWGFmWMTEx gUePHkEURTidThw8eLDSsYiIiKhKrbo4Fs3Pz2NoaAj379/HoUOHYLVasW3btlLlozJYWlrC48eP MT4+jv3798PpdHIfaSIiIvpX/7k4FoVCIQwPD2NsbAwHDhyAzWaDTqcrxa2pRFKpFLxeL548eQKz 2QyHwwFRFCsdi4iIiNaIkhXHokgkghs3buD27dswmUyw2Wxoamoq5SPoFyUSCXi9Xjx9+hRHjx6F w+FAW1tbpWMRERHRGlPy4lgUi8UwMjKCW7duQRRF2O12GAyGcjyK/kYsFoPH44HP58OJEyfQ29sL o9FY6VhERES0RpWtOBYlk0ncvHkTIyMjaG1thd1uR2trazkfue4tLCzgwYMHePnyJc6cOYPLly9z 1JeIiIj+s7IXx6J0Oo3R0VFcv34dTU1NOH78OHbv3l31S74oilL1GYvC4TA8Hg/evHmDc+fO4dKl SxAEodKxiIiI6A/x24pjUSaTwZ07dzA8PAyNRgO73Y49e/ZURTlbWlqCJEkIhUKQJAmfPn3C+/fv ceXKFZhMpkrH+6lUKoVAIIBXr17hw4cPOH/+PC5evAiNRlPpaERERPSH+e3FsSibzWJsbAyDg4Oo q6uD3W7Hvn37yl4gFUVBKpVCNBpFNBpFOBxGOByGJEn48uULWlpaIIoi9u7dC1EUce/ePSwuLuL0 6dNlzfUrIpEIpqam4Pf7MTc3h/b2dthsNvT09KC+vr7S8YiIiOgPVbHiWJTP53H37l0MDg4in8/D ZrPBZDJBpVKtukQWCgXEYjFEIhFEo1EsLCzg69eviEaj+Pz5M3K5HLZv3w6DwYC2tjaIoghRFLFr 1y6o1eof7jU6Ogq3240LFy6U4G1Xp1AoYHZ2FlNTUwgEAkgmk+jq6oLVakVHRwc2bdpUsWxERES0 flS8OBbl83l4PB4MDAxgZmYGAKBSqaBWq5fParUatbW1UKlUy0fxNwDLI4mRSASbN2/Gjh070Nzc jJaWFhiNxuVDEARs2LBhRbnGx8fR39+Pq1evlu3dfyaTyeDt27cIBALw+/3QaDTo7u7GsWPH0N7e jpqamt+ah4iIiKhqiuP/KxQKyOVykGUZmUwG2WwWsiwvH5lM5odrWZaRzWYhCAIMBgOMRmPJRuGm p6fR09ODa9euQRAEbNmypSSf0xVFgSzLiMfjSCaTP5wlScLs7CxEUYTNZoPFYsHOnTtL8DZERERE q1eVxbGayLIMp9OJYDCIUCiE79+/Q6fTQRAENDQ0oKGhAYIgLF+rVCqk02nE43EkEonlI5lM4tu3 b0gmk4jFYojH48jlcti6dSsEQYBOp4Ner4der0dzczM6Ozu59zcRERFVFRbHX6AoChKJBD5+/Ihg MIhgMIi5uTnMz89DkiREo1Hk83nU1tZCq9VCq9WisbERjY2N0Ov1ywWxWDw1Gg0/ORMREdGaweJY QrlcDul0GvX19VWxvBARERFRKbE4EhEREdGKrGxqMRERERGteyyORERERLQiLI5EREREtCIsjkRE RES0Iv8DYC1dumSW/A8AAAAASUVORK5CYII= "
       id="image10587"
       x="77.217606"
       y="74.074219" />
    <text
       xml:space="preserve"
       style="font-style:normal;font-weight:normal;font-size:4.23333px;line-height:1.25;font-family:sans-serif;letter-spacing:0px;word-spacing:0px;fill:#000000;fill-opacity:1;stroke:none;stroke-width:0.264583"
       x="62.763088"
       y="148.15897"
       id="text10857"><tspan
         sodipodi:role="line"
         id="tspan10855"
         style="font-size:4.23333px;stroke-width:0.264583"
         x="62.763088"
         y="148.15897">Point de départ</tspan></text>
    <circle
       style="fill:#34a5ff;fill-opacity:1;stroke:#000000;stroke-width:0.138949;stroke-opacity:1"
       id="path11949"
       cx="77.824005"
       cy="141.57869"
       r="0.99577248" />
    <text
       xml:space="preserve"
       style="font-style:normal;font-weight:normal;font-size:2.82222px;line-height:1.25;font-family:sans-serif;letter-spacing:0px;word-spacing:0px;fill:#000000;fill-opacity:1;stroke:none;stroke-width:0.264583"
       x="117.46654"
       y="132.00644"
       id="text10857-2"><tspan
         sodipodi:role="line"
         id="tspan10855-8"
         style="font-size:2.82222px;stroke-width:0.264583"
         x="117.46654"
         y="132.00644">Longueur de chaque bloc : 100 m</tspan></text>
    <text
       xml:space="preserve"
       style="font-style:normal;font-weight:normal;font-size:2.82222px;line-height:1.25;font-family:sans-serif;letter-spacing:0px;word-spacing:0px;fill:#000000;fill-opacity:1;stroke:none;stroke-width:0.264583"
       x="87.104805"
       y="140.54082"
       id="text10857-2-1"><tspan
         sodipodi:role="line"
         id="tspan10855-8-5"
         style="font-size:2.82222px;stroke-width:0.264583"
         x="87.104805"
         y="140.54082">50</tspan></text>
    <text
       xml:space="preserve"
       style="font-style:normal;font-weight:normal;font-size:2.82222px;line-height:1.25;font-family:sans-serif;letter-spacing:0px;word-spacing:0px;fill:#000000;fill-opacity:1;stroke:none;stroke-width:0.264583"
       x="100.5471"
       y="129.40489"
       id="text10857-2-1-5"><tspan
         sodipodi:role="line"
         id="tspan10855-8-5-4"
         style="font-size:2.82222px;stroke-width:0.264583"
         x="100.5471"
         y="129.40489">150</tspan></text>
    <text
       xml:space="preserve"
       style="font-style:normal;font-weight:normal;font-size:2.82222px;line-height:1.25;font-family:sans-serif;letter-spacing:0px;word-spacing:0px;fill:#000000;fill-opacity:1;stroke:none;stroke-width:0.264583"
       x="113.49708"
       y="117.89224"
       id="text10857-2-1-5-7"><tspan
         sodipodi:role="line"
         id="tspan10855-8-5-4-6"
         style="font-size:2.82222px;stroke-width:0.264583"
         x="113.49708"
         y="117.89224">200</tspan></text>
    <text
       xml:space="preserve"
       style="font-style:normal;font-weight:normal;font-size:2.82222px;line-height:1.25;font-family:sans-serif;letter-spacing:0px;word-spacing:0px;fill:#000000;fill-opacity:1;stroke:none;stroke-width:0.264583"
       x="119.30909"
       y="101.30347"
       id="text10857-2-1-5-5"><tspan
         sodipodi:role="line"
         id="tspan10855-8-5-4-69"
         style="font-size:2.82222px;stroke-width:0.264583"
         x="119.30909"
         y="101.30347">250</tspan></text>
    <text
       xml:space="preserve"
       style="font-style:normal;font-weight:normal;font-size:2.82222px;line-height:1.25;font-family:sans-serif;letter-spacing:0px;word-spacing:0px;fill:#000000;fill-opacity:1;stroke:none;stroke-width:0.264583"
       x="134.64799"
       y="92.461464"
       id="text10857-2-1-5-3"><tspan
         sodipodi:role="line"
         id="tspan10855-8-5-4-7"
         style="font-size:2.82222px;stroke-width:0.264583"
         x="134.64799"
         y="92.461464">300</tspan></text>
    <text
       xml:space="preserve"
       style="font-style:normal;font-weight:normal;font-size:2.82222px;line-height:1.25;font-family:sans-serif;letter-spacing:0px;word-spacing:0px;fill:#000000;fill-opacity:1;stroke:none;stroke-width:0.264583"
       x="150.522"
       y="85.894669"
       id="text10857-2-1-5-4"><tspan
         sodipodi:role="line"
         id="tspan10855-8-5-4-5"
         style="font-size:2.82222px;stroke-width:0.264583"
         x="150.522"
         y="85.894669">350</tspan></text>
    <path
       style="fill:none;stroke:#000000;stroke-width:0.265;stroke-linecap:butt;stroke-linejoin:miter;stroke-miterlimit:4;stroke-dasharray:none;stroke-opacity:1;marker-start:url(#marker15007);marker-end:url(#Arrow1Mend)"
       d="m 78.929274,141.51255 6.897727,-3.69716"
       id="path14915" />
    <path
       style="fill:none;stroke:#000000;stroke-width:0.265;stroke-linecap:butt;stroke-linejoin:miter;stroke-miterlimit:4;stroke-dasharray:none;stroke-opacity:1;marker-start:url(#marker15007-9);marker-end:url(#Arrow1Mend-3)"
       d="m 87.274237,136.76944 11.693646,-9.47502"
       id="path14915-1"
       sodipodi:nodetypes="cc" />
    <path
       style="fill:none;stroke:#000000;stroke-width:0.265;stroke-linecap:butt;stroke-linejoin:miter;stroke-miterlimit:4;stroke-dasharray:none;stroke-opacity:1;marker-start:url(#marker15007-9-2);marker-end:url(#Arrow1Mend-3-3)"
       d="m 100.90729,125.71059 11.04757,-9.61683"
       id="path14915-1-9"
       sodipodi:nodetypes="cc" />
    <path
       style="fill:none;stroke:#000000;stroke-width:0.265;stroke-linecap:butt;stroke-linejoin:miter;stroke-miterlimit:4;stroke-dasharray:none;stroke-opacity:1;marker-start:url(#marker15007-9-4);marker-end:url(#Arrow1Mend-3-8)"
       d="m 113.55541,114.17414 10.67689,-10.9835"
       id="path14915-1-5"
       sodipodi:nodetypes="cc" />
    <text
       xml:space="preserve"
       style="font-style:normal;font-weight:normal;font-size:2.82222px;line-height:1.25;font-family:sans-serif;letter-spacing:0px;word-spacing:0px;fill:#000000;fill-opacity:1;stroke:none;stroke-width:0.264583"
       x="9.4647102"
       y="159.21664"
       id="text16117"
       transform="rotate(-42.383322)"><tspan
         sodipodi:role="line"
         id="tspan16115"
         style="font-size:2.82222px;stroke-width:0.264583"
         x="9.4647102"
         y="159.21664">100 m</tspan></text>
    <text
       xml:space="preserve"
       style="font-style:normal;font-weight:normal;font-size:2.82222px;line-height:1.25;font-family:sans-serif;letter-spacing:0px;word-spacing:0px;fill:#000000;fill-opacity:1;stroke:none;stroke-width:0.264583"
       x="1.0744303"
       y="160.13045"
       id="text16117-0"
       transform="rotate(-39.584419)"><tspan
         sodipodi:role="line"
         id="tspan16115-3"
         style="font-size:2.82222px;stroke-width:0.264583"
         x="1.0744303"
         y="160.13045">100 m</tspan></text>
    <text
       xml:space="preserve"
       style="font-style:normal;font-weight:normal;font-size:2.82222px;line-height:1.25;font-family:sans-serif;letter-spacing:0px;word-spacing:0px;fill:#000000;fill-opacity:1;stroke:none;stroke-width:0.264583"
       x="-12.780207"
       y="160.43492"
       id="text16117-6"
       transform="rotate(-38.009395)"><tspan
         sodipodi:role="line"
         id="tspan16115-1"
         style="font-size:2.82222px;stroke-width:0.264583"
         x="-12.780207"
         y="160.43492">100 m</tspan></text>
    <text
       xml:space="preserve"
       style="font-style:normal;font-weight:normal;font-size:2.82222px;line-height:1.25;font-family:sans-serif;letter-spacing:0px;word-spacing:0px;fill:#000000;fill-opacity:1;stroke:none;stroke-width:0.264583"
       x="-5.7219429"
       y="161.01378"
       id="text16117-06"
       transform="rotate(-31.329334)"><tspan
         sodipodi:role="line"
         id="tspan16115-32"
         style="font-size:2.82222px;stroke-width:0.264583"
         x="-5.7219429"
         y="161.01378">50 m</tspan></text>
  </g>
</svg>
